id	class	type/scale	name	text
	S		language	de
	SL		surveyls_language	de
	SL		surveyls_title	Körperverletzung im Amt durch Polizeibeamt*innen
1	G	1	.	.
1	Q	L	070	"Bitte geben Sie Ihr Geschlecht an. 
Ich bin "
1	A		1	weiblich
1	A		2	männlich
1	A		3	inter/divers
1	A		4	trans*
2	SQ	S	5	etwas anderes:
3	Q	M	120	"Wo kam es zu der Gewalt durch die Polizei?  
Wenn es während des Vorfalls zu einem Ortswechsel kam, geben Sie bitte alle Orte an, an denen es zur 
Gewalt kam. "
4	SQ		121	draußen in der Öffentlichkeit (z.B. Straße, Platz, Wald usw.) 
5	SQ		122	private Wohnung (inkl. Treppenhaus) oder privates Haus / Grundstück
6	SQ		123	in einem öffentlichen Verkehrsmittel (z.B. Zug, Bus, U-Bahn, Straßenbahn usw.)
7	SQ		124	Bahnhof oder Haltestelle eines öffentlichen Verkehrsmittels
8	SQ		125	im Polizeifahrzeug (z.B. Streifenwagen, Einsatzfahrzeug, Transporter usw.) 
9	SQ		126	auf der Polizeiwache oder im Polizeigewahrsam (z.B. in der Zelle, Gefangenensammelstelle usw.) 
10	SQ		127	sonstiges öffentlich zugängliches Gebäude (z.B. Behörde, Kneipe, Stadion, Geschäft usw.)
3	A		99	.
11	Q	F	530	Sie haben angegeben, dass auch andere Polizist/innen anwesend waren, die keine Gewalt gegen Sie angewendet haben. Wie haben sich diese verhalten? Die anderen Polizist/innen haben…
12	SQ		531	weggeguckt, die Tat ignoriert
13	SQ		532	nicht eingegriffen und zugeschaut
14	SQ		533	versucht zu schlichten
15	SQ		534	verbal versucht den/die Täter/in abzuhalten
16	SQ		535	körperlich versucht den/die Täter/in abzuhalten
17	SQ		536	den/die Täter/in ermutigt
11	A		1	trifft überhaupt nicht zu
11	A		2	trifft eher nicht zu
11	A		3	trifft teilweise zu 
11	A		4	trifft eher zu
11	A		5	trifft voll und ganz zu
11	A		98	weiß ich nicht 
11	A		99	weiter ohne Angabe
18	Q	N	102	Wie häufig ist es in Ihrem Leben vorgekommen, dass Sie die gegen Sie eingesetzte Gewalt der Polizei als nicht notwendig oder übertrieben empfunden haben?
19	Q	S	84	Der Fokus unserer Studie liegt auf persönlichen Erfahrungen mit körperlicher Gewalt durch die Polizei in Deutschland. Gibt es etwas, was Sie uns mitteilen möchten? Dann können Sie hier Anmerkungen oder Kritik hinterlassen.
