id	class	type/scale	name	text
	S		language	de
	SL		surveyls_language	de
	SL		surveyls_title	Test Fragebogen Metadatei
1	G	1	.	.
1	Q	F	leistung	Sozialleistungen in Deutschland…
2	SQ		leistungscale	belasten die Volkswirtschaft zu stark.
3	SQ		leistung1	verhindern weit verbreitete Armut.
4	SQ		leistung2	führen zu mehr Gleichheit in der Gesellschaft.
5	SQ		leistung3	ermutigen Menschen aus anderen Ländern, hierher zu kommen, um hier zu leben.
6	SQ		leistung4	kosten die Unternehmen zu hohe Steuern und Abgaben.
7	SQ		leistung5	machen es einfacher, Beruf und Familie zu vereinbaren.
1	A		1	Stimme stark zu
1	A		2	Stimme zu
1	A		3	Weder noch
1	A		4	Lehne ab
1	A		5	Lehne stark ab
8	Q	L	gender	Welches Geschlecht haben Sie?
8	A		3	weiblich
8	A		2	männlich
8	A		1	anders
9	Q	F	zustimm	Und wie stark stimmen Sie dem zu oder lehnen es ab, dass Sozialleistungen in Deutschland…
10	SQ		zustimmscale	die Menschen faul machen?
11	SQ		zustimm1	dazu beitragen, dass Menschen weniger dazu bereit sind, sich umeinander zu kuemmern?
12	SQ		zustimm2	dazu beitragen, dass Menschen weniger dazu bereit sind, sich um sich selbst und um ihre Familie zu kuemmern?
9	A		1	Stimme stark zu
9	A		2	Stimme zu
9	A		3	Weder noch
9	A		4	Lehne ab
9	A		5	Lehne stark ab
13	Q	F	stand	Bitte sagen Sie mir, wie schätzen Sie…
14	SQ		standscale	den Lebensstandard von Rentnern und Pensionären im Großen und Ganzen ein?
15	SQ		stand1	den Lebensstandard von Arbeitslosen im Großen und Ganzen ein?
16	SQ		stand2	das Angebot bezahlbarer Kinderbetreuungsmöglichkeiten für berufstätige Eltern im Großen und Ganzen ein?
17	SQ		stand3	im Großen und Ganzen die Chancen von jungen Menschen ein, zum ersten Mal eine Stelle zu finden?
13	A		1	äußerst gut
13	A		2	.
13	A		3	.
13	A		4	.
13	A		5	.
13	A		6	.
13	A		7	.
13	A		8	.
13	A		9	.
13	A		10	.
13	A		11	äußerst schlecht
