id	class	type/scale	name	text
	S		language	de
	SL		surveyls_language	de
	SL		surveyls_title	Kinderbetreuung in Deutschland - Schriftlicher Fragebogen
1	G	1	.	Question Group 1
1	Q	L	sex-children	Ist Ihr Kind ein Junge oder ein Mädchen?
1	A		2	Mädchen 
1	A		1	Junge
2	Q	M	care-children	Wie wird Ihr Kind normalerweise - außer von Ihnen und/oder dem Zweiten Elternteil - betreut? 
3	SQ		care-children1	Von den Großeltern
4	SQ		care-children2	Von den Geschwistern
5	SQ		care-children3	Von einem bezahlten Helfer (z.B. Kindermädchen, Au-pair)
6	SQ		care-children4	Von einem unbezahlten Helfer (z.B. Nachbarn und Freunde)
7	SQ		care-children5	In einer Kindertageseinrichtung (z.B. Krippe, Kindergarten, Kindertagesstätte)
8	SQ		care-children6	Von einer Tagesmutter bzw. einem Tagesvater (Tagespflege)
9	SQ		care-children7	Ausschließlich von Ihnen bzw. dem zweiten Elternteil
2	A		1	.
10	Q	F	daycare-choic	"Wie wichtig waren die folgenden Punkte für Sie bei der Wahl der Kindertagesbetreuung? 
Bitte stufen Sie Ihre Antwort ab, mit einem Wert von 1 = sehr wichtig bis 6 = überhaupt nicht wichtig"
11	SQ		daycare-choicscale	Die Öffnungszeiten
12	SQ		daycare-choic1	Die Nähe zum Wohnort
13	SQ		daycare-choic2	Die Nähe zum Arbeitsplatz des Vaters
14	SQ		daycare-choic3	Die Nähe zum Arbeitsplatz der Mutter
15	SQ		daycare-choic4	Ein gute soziale Durchmischung der Gruppe
16	SQ		daycare-choic5	Aufgeschlossenheit für andere Kulturen
17	SQ		daycare-choic6	Die Kosten
18	SQ		daycare-choic7	Eine kleine Gruppe
19	SQ		daycare-choic8	Gute, individuelle Förderangebote für Kinder mit besonderen Förderbedarfen
20	SQ		daycare-choic9	Ein gesundes und frisch gekochtes Essen
21	SQ		daycare-choic10	Ein gute Ausstattung und gute Räumlichkeiten
10	A		1	sehr wichtig (1)
10	A		2	2
10	A		3	3
10	A		4	4
10	A		5	5
10	A		6	überhaupt nicht wichtig (6)
10	A		7	trifft nicht zu
11	Q	N	daycare-hours	Wie viele Stunden pro Woche besucht Ihr Kind normalerweise die Kindertagesbetreuung?
12	Q	S	job	Welche berufliche Tätigkeit übt Ihr Partner bzw. Ihre Partnerin gegenwärtig aus? 
