id	class	type/scale	name	text
	S		language	de
	SL		surveyls_language	de
	SL		surveyls_title	Life Fragebogen
1	G	1	.	.
1	Q	L	e1k1	Ich nehme an der Verlosung des iPad teil.
1	A		2	Ja
1	A		1	Nein
2	G	2	.	Elternhaus
2	Q	L	e2k1V	Früher hatten Menschen häufig geringere Bildungschancen als heute. Bitte nennen Sie uns den höchsten Schulabschluss Ihres Vaters und ihrer Ihrer Mutter.
2	A		5	Volksschul-, Hauptschulabschluss
2	A		4	Mittlere Reife, 10. Klasse, Realschulabschluss, Fachschulreife
2	A		3	Fachhochschulreife, fachgebundene Hochschulreife, Abschluss einer Fachoberschule
2	A		2	Abitur, allgemeine Hochschulreife
2	A		1	Anderen Schulabschluss
2	A		0	Von der Schule abgegangen ohne Abschluss.
3	Q	S	e2k1VS	Anderen Schulabschluss, bitte notieren:
4	Q	L	e2k1M	.
4	A		5	.
4	A		4	.
4	A		3	.
4	A		2	.
4	A		1	.
4	A		0	.
5	Q	S	e2k1MS	Anderen Schulabschluss, bitte notieren:
6	Q	L	e2k2V	Bitten nennen Sie uns den höchsten beruflichen Ausbildungsabschluss Ihres Vaters und Ihrer Mutter.
6	A		8	Keine berufliche Ausbildung (auch Berufsschule ohne Lehre)
6	A		7	Berufsschule mit gewerblicher oder landwirtschaftlicher Lehre
6	A		6	Berufsschule mit kaufmännischer oder sonstiger Lehre
6	A		5	Berufsfachschule
6	A		4	Meister-, Techniker- oder gleichwertige Fachschule
6	A		3	Fachhochschule (auch Ingenieurschule)
6	A		2	Hochschulabschluss
6	A		1	Andere berufliche Ausbildung
7	Q	S	e2k2VS	Andere berufliche Ausbildung, bitte notieren:
8	Q	L	e2k2M	.
8	A		8	.
8	A		7	.
8	A		6	.
8	A		5	.
8	A		4	.
8	A		3	.
8	A		2	.
8	A		1	.
9	Q	S	e2k2MS	Andere berufliche Ausbildung, bitte notieren:
10	Q	S	e2k3VS	Bitte erinnern Sie sich: Welche Tätigkeit übten Ihr Vater und Ihre Mutter in ihrem Hauptberuf aus, als Sie selbst 16 Jahre alt waren?
11	Q	S	e2k3MS	.
12	Q	N	e2k4VN	Wann wurden Ihre Eltern geboren?
12	A		1	Kann ich nicht beantworten
13	Q	N	e2k4MN	.
13	A		1	Kann ich nicht beantworten
14	Q	S	e2k5VS	In welchem Land wurden Ihre Eltern geboren?
15	Q	S	e2k5MS	.
16	Q	L	e2k6V	Sind Ihre Eltern noch am Leben?
16	A		2	Ja
16	A		1	Nein
17	Q	N	e2k6VN	Wann verstorben?
18	Q	L	e2k6M	.
18	A		2	.
18	A		1	.
19	Q	N	e2k6MN	Wann verstorben?
20	Q	M	e2k7V	Mit wem lebt Ihr Vater bzw. Ihre Mutter zusammen?
21	SQ		e2k7V1	Gemeinsam mit Ihrer Mutter bzw. Vater in einem Haushalt.
22	SQ		e2k7V2	Mit einer anderen Partnerin bzw. einem anderen Partner in einem Haushalt.
23	SQ		e2k7V3	Mit jemand anderem in einem Haushalt.
24	SQ		e2k7V4	Allein.
25	SQ		e2k7V5	In einem Alters- oder Pflegeheim, in betreuter Wohnanlage.
26	SQ		e2k7V6	Sonstiges.
27	SQ		e2k7V7	Kann ich nicht beantworten.
20	A		1	.
28	Q	M	e2k7M	.
29	SQ		e2k7M1	.
30	SQ		e2k7M2	.
31	SQ		e2k7M3	.
32	SQ		e2k7M4	.
33	SQ		e2k7M5	.
34	SQ		e2k7M6	.
35	SQ		e2k7M7	.
28	A		1	.
36	Q	L	e2k8V	Wie geht es Ihrem Vater und Ihrer Mutter zurzeit gesundheitlich, insgesamt gesehen?
36	A		6	Sehr gut
36	A		5	Gut
36	A		4	Es geht so (mittelmäßig).
36	A		3	Schlecht
36	A		2	Sehr schlecht
36	A		1	Kann ich nicht beantworten
37	Q	L	e2k8M	.
37	A		6	.
37	A		5	.
37	A		4	.
37	A		3	.
37	A		2	.
37	A		1	.
38	Q	L	e2k9V	Benötigen Ihr Vater oder Ihre Mutter innerhalb der letzten 12 Monate regelmäßige Hilfe bei täglichen Verrichtungen, wie z.B. essen, aufstehen, anziehen, baden oder zur Toilette gehen?
38	A		3	Ja
38	A		2	Nein
38	A		1	Kann ich nicht beantworten
39	Q	L	e2k9M	.
39	A		3	.
39	A		2	.
39	A		1	.
40	Q	L	e2k10V	Wie oft haben Sie normalerweise Kontakt mit Ihrem Vater und Ihrer Mutter, egal ob persönlich, telefonisch oder schriftlich?
40	A		8	Täglich
40	A		7	Mehrmals in der Woche
40	A		6	Einmal in der Woche
40	A		5	1-3 Mal im Monat
40	A		4	Mehrmals im Jahr
40	A		3	Seltener
40	A		2	Kein Kontakt
40	A		1	Kann ich nicht beantworten
41	Q	L	e2k10M	.
41	A		8	.
41	A		7	.
41	A		6	.
41	A		5	.
41	A		4	.
41	A		3	.
41	A		2	.
41	A		1	.
42	Q	L	e2k11V	Wie lange brauchen Sie, um zu Ihrem Vater und zu Ihrer Mutter zu kommen (an einem gewöhnlichen Tag, mit einem Verkehrsmittel, das Sie normalerweise benutzen)?
42	A		7	Wir wohnen in einem Haus.
42	A		6	Weniger als 10 Minuten
42	A		5	10 bis weniger als 30 Minuten
42	A		4	30 Minuten bis weniger als 1 Stunde
42	A		3	1 Stunde bis weniger als 3 Stunden
42	A		2	3 Stunden und mehr
42	A		1	Kann ich nicht beantworten.
43	Q	L	e2k11M	.
43	A		7	.
43	A		6	.
43	A		5	.
43	A		4	.
43	A		3	.
43	A		2	.
43	A		1	.
3	G	3	.	Wie genau treffen die folgenden Aussagen auf Ihre gegenwärtige Situation zu?
44	Q	F	e2k12Q1	Mein Vater bzw. meine Mutter sind für mich wie gute Freunde.
45	SQ		e2k12Q1scale	Vater
46	SQ		e2k12Q11	Mutter
44	A		1	Trifft genau zu
44	A		2	Trifft eher zu
44	A		3	Trifft eher nicht zu
44	A		4	Trifft gar nicht zu
47	Q	F	e2k12Q2	Mein Vater bzw. meine Mutter mag mich so, wie ich bin.
48	SQ		e2k12Q2scale	Vater
49	SQ		e2k12Q21	Mutter
47	A		1	.
47	A		2	.
47	A		3	.
47	A		4	.
50	Q	F	e2k12Q3	Ich kann meinem Vater bzw. meiner Mutter alles erzählen, was mich beschäftigt.
51	SQ		e2k12Q3scale	Vater
52	SQ		e2k12Q31	Mutter
50	A		1	.
50	A		2	.
50	A		3	.
50	A		4	.
53	Q	F	e2k12Q4	Ich genieße das Zusammensein mit meinem Vater bzw. meiner Mutter.
54	SQ		e2k12Q4scale	Vater
55	SQ		e2k12Q41	Mutter
53	A		1	.
53	A		2	.
53	A		3	.
53	A		4	.
56	Q	F	e2k12Q5	Obwohl ich meinen Vater bzw. meine Mutter liebe, bin ich häufig auch ärgerlich auf ihn/sie.
57	SQ		e2k12Q5scale	Vater
58	SQ		e2k12Q51	Mutter
56	A		1	.
56	A		2	.
56	A		3	.
56	A		4	.
4	G	4	.	Wie oft kommen die folgenden Situationen vor?
59	Q	F	e2k13Q1	Wie oft passiert es zwischen Ihnen und Ihrem Vater bzw. zwischen Ihnen und Ihrer Mutter, dass sie ärgerlich oder wütend aufeinander sind?
60	SQ		e2k13Q1scale	Vater und ich
61	SQ		e2k13Q11	Mutter und ich
59	A		1	Immer
59	A		2	Häufig
59	A		3	Manchmal
59	A		4	Seltener
59	A		5	Nie
