id	class	type/scale	name	text
	S		language	de
	SL		surveyls_language	de
	SL		surveyls_title	Befragung für die Kanditatenaufstellung für die Bundestagswahl 2017
1	G	1	.	.
1	Q	L	Geschlecht	Welches Geschlecht haben Sie?
1	A		3	männlich
1	A		2	weiblich
1	A		1	anderes
2	Q	L	Bildung	Was ist Ihr höchster Bildungsabschluss?
2	A		6	Haupt- oder Volksschulabschluss
2	A		5	Mittlere Reife oder Abschluss der polytechnischen Oberschule
2	A		4	Abitur, Fachhochschulreife (Gymnasium oder erweiterte Oberschule EOS)
2	A		3	Universitäts-, Hochschul- bzw. Fachhochschulabschluss
2	A		2	Promotion
2	A		1	ohne Schulabschluss
3	Q	L	Tätigkeit	Sind Sie im politischen oder politiknahen Bereich beruflich tätig?
3	A		2	ja
3	A		1	nein
