id	class	type/scale	name	text
	S		language	de
	SL		surveyls_language	de
	SL		surveyls_title	Fragebogen für Arbeiter
1	G	1	.	.
1	Q	F	self	Bitte bewerten sie die folgenden Aussagen
2	SQ		selfscale	Ich kann wichtige Begriffe, Sachverhalte aus dieser Lehrveranstaltung wiedergeben
3	SQ		self1	Ich sehe mich nun in der Lage, eine typische Fragestellung des Themengebietes dieser Lehrveranstaltung zu bearbeiten
4	SQ		self2	Ich kann die Sachverhalte aus dieser Lehrveranstaltung in der praktischen Arbeit anwenden
1	A		1	trifft völlig zu
1	A		2	trifft eher zu
1	A		3	teils, teils
1	A		4	trifft eher nicht zu
1	A		5	trifft gar nicht zu
5	Q	F	bal	Der Anteil von
6	SQ		balscale	inhaltlichen Erklärungen
7	SQ		bal1	Kleingruppen – Aktivitäten war
8	SQ		bal2	Austausch in der Gesamtgruppe war
5	A		1	sehr hoch
5	A		2	eher hoch
5	A		4	eher niedrig
5	A		5	sehr niedrig
9	Q	F	atmo	Im Seminar
10	SQ		atmoscale	herrschte ein respektvoller Umgang miteinander
11	SQ		atmo1	habe ich mich aktiv beteiligt (Fragen, Kommentare, Diskussionen)
12	SQ		atmo2	hatte ich genügend Zeit, über meine Schwierigkeiten mit den Lerninhalten zu diskutieren
9	A		1	immer
9	A		2	oft
9	A		3	gelegentlich
9	A		4	selten
9	A		5	nie
13	Q	F	mat	Wie hilfreich waren folgende Materialien für Ihr Verständnis des Lehrstoffs?
14	SQ		matscale	die eingesetzten Medien zur Präsentation der Lerninhalte
15	SQ		mat1	die bereitgestellten Aufgaben/Übungen
16	SQ		mat2	die bereitgestellten Skripte, Texte
17	SQ		mat3	die empfohlene Literatur
13	A		1	sehr hilfreich
13	A		2	eher hilfreich
13	A		3	teils, teils
13	A		4	eher nicht hilfreich
13	A		5	gar nicht hilfreich
13	A		6	keine Bereitstellung
18	Q	S	insight	Das nehme ich aus dem Seminar mit
