id	class	type/scale	name	text
	S		language	fr
	SL		surveyls_language	fr
	SL		surveyls_title	Enquête ouvrière
1	G	1	.	.
1	Q	L	shop	Est-ce que l’atelier où vous travaillez appartient à un capitaliste ou à une compagnie d’actionnaires?
1	A		3	capitaliste
1	A		2	compagnie d’actionnaires
1	A		1	ne sait pas
2	Q	L	childage	Quel est âge le plus jeune auquel les enfants sont admis?
2	A		7	moins de 13 ans
2	A		6	13 ans
2	A		5	14 ans
2	A		4	15 ans
2	A		3	16 ans
2	A		2	plus de 16 ans
2	A		1	ne sait pas
3	Q	L	shoplocal	L’atelier est-il situé à la campagne ou à la ville?
3	A		2	à la campagne
3	A		1	à la ville
4	Q	L	agrilabor	Si votre atelier est situé à la campagne est-ce que votre travail industriel suffit à vous faire vivre, ou bien le combinez vous avec un travail agricole?
4	A		2	le travail industriel est suffisant pour vivre
4	A		1	combiner avec le travail agricole 
5	Q	M	safety	La force motrice, les appareils de transmission et les machines sont-elles protégées de manière à prévenir tout accident?
6	SQ		safety1	force motrice
7	SQ		safety2	appareils de transmission
8	SQ		safety3	machines
5	A		1	.
9	Q	F	hyg	Dans quelle mesure êtes-vous satisfait des conditions d'hygiène de l’atelier?
10	SQ		hygscale	dimension des pièces
11	SQ		hyg1	ventilation
12	SQ		hyg2	température
13	SQ		hyg3	blanchissement des murs à la chaux
14	SQ		hyg4	lieux d’aisance
15	SQ		hyg5	propreté générale
16	SQ		hyg6	bruit des machines
17	SQ		hyg7	poussières métalliques
18	SQ		hyg8	humidité
9	A		1	très satisfait
9	A		2	plutôt satisfait
9	A		3	plutôt insatisfait
9	A		4	très insatisfaits
9	A		5	ne s'applique pas
19	Q	S	accidents	Rapportez les accidents arrivés durant votre expérience personnelle.
20	Q	N	holidays	Enumérez les jours fériés pendant l’année.
