id	class	type/scale	name	text
	S		language	en
	SL		surveyls_language	en
	SL		surveyls_title	A Workers‘ Inquiry
1	G	1	.	.
1	Q	L	shop	Does the shop in which you work belong to a capitalist or to a limited company? 
1	A		3	capitalist
1	A		2	limited company
1	A		1	don‘t know
2	Q	L	childage	What is the youngest age at which children are taken on?
2	A		7	younger than 13 years
2	A		6	13 years
2	A		5	14 years
2	A		4	15 years
2	A		3	16 years
2	A		2	older than 16 years
2	A		1	don‘t know
3	Q	L	shoplocal	Is the shop in a village, or in a town? 
3	A		2	village
3	A		1	town
4	Q	L	agrilabor	If your shop is in the country, is there sufficient work in the factory for your existence, or are you obliged to combine it with agricultural labor?
4	A		2	sufficient work in the factory
4	A		1	combine it with agricultural labor
5	Q	M	safety	Are safety measures to prevent accidents applied to the engine, transmission and machinery
6	SQ		safety1	engine
7	SQ		safety2	transmission
8	SQ		safety3	machinery
5	A		1	.
9	Q	F	hyg	How satisfied are you with the hygienic conditions in the workshop regarding the following aspects.
10	SQ		hygscale	size of the rooms space
11	SQ		hyg1	ventilation
12	SQ		hyg2	temperature
13	SQ		hyg3	plastering
14	SQ		hyg4	lavatories
15	SQ		hyg5	general cleanliness
16	SQ		hyg6	noise of machinery
17	SQ		hyg7	metallic dust
18	SQ		hyg8	dampness
9	A		1	very satisfied
9	A		2	somewhat satisfied
9	A		3	somewhat dissatisfied
9	A		4	very dissatisfied
9	A		5	does not apply
19	Q	S	accidents	Mention the accidents which have taken place to your personal knowledge.
20	Q	N	holidays	State the number of holidays in the course of a year.
