id	class	type/scale	name	text
	S		language	de
	SL		surveyls_language	de
	SL		surveyls_title	Umfrage 2018
1	G	1	Krankenhaus	.
1	Q	L	krankh	Gab es bei Ihrem Kind in den letzten 12 Monaten gesundheitliche Probleme, die einen Krankenhausaufenthalt notwendig machte?
1	A		2	Nein
1	A		1	Ja
2	Q	N	kranktoffen	und zwar
2	G	2	Erkrankungen	.
3	Q	M	erkrankt	Ist im Rahmen einer ärztlichen Untersuchung bei Ihrem Kind einmal eine der folgenden Erkrankungen oder Störungen festgestellt worden?
4	SQ		erkrankt1	Asthma
5	SQ		erkrankt2	Chronische Bronchitis
6	SQ		erkrankt3	Mittelohrentzündung
7	SQ		erkrankt4	Heuschnupfen
8	SQ		erkrankt5	Neurodermitis
3	A		1	.
3	G	3	Befinden	.
9	Q	F	kind	Wie sehen Sie Ihr Kind heute?
10	SQ		kindscale	Mein Kind ist meist fröhlich und zufrieden
11	SQ		kind1	Mein Kind ist leicht erregbar und weint häufig
12	SQ		kind2	Mein Kind ist schwer zu trösten
13	SQ		kind3	Mein Kind ist neugierig und aktiv
14	SQ		kind4	Die Gesundheit meines Kindes macht mir Sorgen
9	A		1	Trifft voll zu
9	A		2	Trifft eher zu
9	A		3	Trifft eher nicht zu
9	A		4	Trifft gar nicht zu
