id	class	type/scale	name	text
	S		language	de
	SL		surveyls_language	de
	SL		surveyls_title	LifE
	SL		surveyls_subtitle	Lebensläufe ins frühe Erwachsenenalter
1	G	1	.	Partnerschaften
1	Q	L	Familienstand	Welchen Familienstand haben Sie derzeit?
1	A		5	Verheiratet und lebe mit EhepartnerIn zusammen
1	A		4	Verheiratet, aber in Trennung lebend
1	A		3	Geschieden 
1	A		2	Verwitwet 
1	A		1	Ledig
2	Q	M	Hhalt	Wie setzt sich Ihr Haushalt gegenwärtig zusammen? Kreuzen Sie bitte an, wer alles bei Ihnen im gleichen Haushalt lebt.
3	SQ		Hhalt1	Ich wohne alleine.
4	SQ		Hhalt2	EhepartnerIn bzw. LebenspartnerIn.
5	SQ		Hhalt3	Eigene Kinder (leibliche Kinder und Adoptivkinder)
6	SQ		Hhalt4	Stiefkinder (Kinder des (Ehe-)partners)
7	SQ		Hhalt5	Eigene Eltern, Schwiegereltern
2	A		1	.
8	Q	S	HHalt6	Andere Personen: 
9	Q	L	PartnerschaftDauer	Denken Sie bitte zuerst an die letzten 10 Jahre. Hatten Sie in dieser Zeit eine oder mehrere Partnerschaft(en) von mehr als 6 Monate Dauer?
9	A		3	Ich hatte in den letzten 10 Jahren keine Partnerschaft von mehr als 6 Monaten Dauer. 
9	A		2	Ich war in den letzten 10 Jahren dauerhaft verheiratet. 
9	A		1	Ich hatte in den letzten 10 Jahren eine oder mehrere Partnerschaften von mehr als 6 Monaten Dauer. 
10	Q	L	7	Wie geht es Ihrer derzeitigen (Ehe-)Partnerin bzw. Ihrem derzeitigen (Ehe-)Partner gesundheitlich, insgesamt gesehen?
10	A		6	Sehr gut
10	A		5	Gut
10	A		4	Es geht so (mittelmäßig)
10	A		3	Schlecht
10	A		2	Sehr schlecht
10	A		1	Kann ich nicht beantworten
