id	class	type/scale	name	text
	S		language	de
	SL		surveyls_language	de
	SL		surveyls_title	Befragung für die Kanditatenaufstellung für die Bundestagswahl 2017
1	G	1	.	.
1	Q	L	Geschlecht	Welches Geschlecht haben Sie?
1	A		3	männlich
1	A		2	weiblich
1	A		1	anderes
2	Q	L	Bildung	Was ist Ihr höchster Bildungsabschluss?
2	A		6	Haupt- oder Volksschulabschluss
2	A		5	Mittlere Reife oder Abschluss der polytechnischen Oberschule
2	A		4	Abitur, Fachhochschulreife (Gymnasium oder erweiterte Oberschule EOS)
2	A		3	Universitäts-, Hochschul- bzw. Fachhochschulabschluss
2	A		2	Promotion
2	A		1	ohne Schulabschluss
3	Q	L	Tätigkeit	Sind Sie im politischen oder politiknahen Bereich beruflich tätig?
3	A		2	ja
3	A		1	nein
4	Q	M	Verfahren	Es existieren ja verschiedene Verfahren zur Nominierung von ListenkandidatInnen. Welches wäre Ihrer Meinung nach das beste Verfahren, unabhängig von rechtlichen Fragen.
5	SQ		Verfahren1	die wahlberechtigten Bürgerinnen und Bürger
6	SQ		Verfahren2	alle Mitglieder meiner Partei auf einer Mitgliederversammlung
7	SQ		Verfahren3	die gewählten Mitglieder meiner Partei auf einer Delegiertenversammlung
8	SQ		Verfahren4	den jeweils zuständigen Parteivorstand
4	A		1	.
9	Q	F	Kand	Haben Sie schon einmal für den Bundestag kandidiert?
10	SQ		Kandscale	WahlkreiskandidatIn
11	SQ		Kand1	im Wahlkreis gewählt
12	SQ		Kand2	ListenkandidatIn
13	SQ		Kand3	über die Liste gewählt
9	A		1	Im Jahr 2005
9	A		2	Im Jahr 2009
9	A		3	im Jahr 2013
9	A		4	im Jahr 2017
