id	class	type/scale	name	text
	S		language	de
	SL		surveyls_language	de
	SL		surveyls_title	Lebensverlaeufe ins frühe Erwachsenenalter
1	G	1	.	Kinder
1	Q	N	e9k1	Wie viele Kinder haben Sie?
2	Q	F	e9k2	Wie sehr stimmen Sie den folgenden Aussagen zu oder lehnen sie ab?
3	SQ		e9k2scale	Bei den meisten Kindern muss man öfter einmal hart durchgreifen.
4	SQ		e9k21	Ohne häufigen Zwang können auch die besten Eltern nichts erreichen.
5	SQ		e9k22	Kinder müssen immer wieder lernen, auch dann zu gehorchen, wenn sie nicht verstehen, wozu etwas gut ist.
2	A		1	Lehne völlig ab
2	A		2	Lehne eher ab
2	A		3	Stimme eher zu
2	A		4	Stimme völlig zu
6	Q	L	e10k4	Welchen Schulabschluss sollte ihr Kind Ihren Vorstellungen nach erreichen? Wenn Ihr Kind bereits einen Schulabschluss hat, kreuzen Sie bitte den Schulabschluss an, den Ihr Kind Ihren Vorstellungen nach hätte erreichen sollen.
6	A		1	den Hauptschulabschluss
6	A		2	den Realschulabschluss (Mittlere Reife)
6	A		3	das Abitur
7	Q	M	e10k5	Und welchen Berufsabschluss sollte Ihr Kind Ihren Vorstellungen nach erreichen?
8	SQ		e10k51	Keinen Abschluss
9	SQ		e10k52	Abschluss einer Lehre
10	SQ		e10k53	Berufsfachschule, Fachschule (z.B. Gesundheitswesen, Meister-, Technikerschule)
11	SQ		e10k54	Fachhochschule
12	SQ		e10k55	Universität
13	SQ		e10k56	Andere:
14	SQ		e10k57	Weiß ich nicht.
7	A		1	.
15	Q	M	e10k7	Und was erwarten Sie, welchen Berufsabschluss Ihr Kind auch wirklich erreicht?
16	SQ		e10k71	Keinen Abschluss
17	SQ		e10k72	Abschluss einer Lehre
18	SQ		e10k73	Berufsfachschule, Fachschule (z.B. Gesundheitswesen, Meister-, Technikerschule)
19	SQ		e10k74	Fachhochschule
20	SQ		e10k75	Universität
21	SQ		e10k76	Andere:
22	SQ		e10k77	Weiß ich nicht.
23	Q	L	e10k8	Für wie begabt halten Sie ihr Kind?
23	A		1	Sehr begabt
23	A		2	Eher begabt
23	A		3	Weniger begabt
23	A		4	Gar nicht begabt
