id	class	type/scale	name	text
	S		language	de
	SL		surveyls_language	de
	SL		surveyls_title	Bürgerumfrage
1	G	1	.	Fragengruppe 1
1	Q	L	var40	Kennen Sie das Fundbüro der Stadt Leipzig im Technischen Rathaus, Prager Straße? 
1	A		1	ja
1	A		2	nein
1	A		3	weiß nicht
2	Q	M	var41	Haben Sie das Fundbüro der Stadt Leipzig in den letzten 5 Jahren genutzt?
3	SQ		var411	ja, ich habe etwas gefunden 
4	SQ		var412	ja, ich habe etwas verloren 
5	SQ		var413	nein
2	A		1	.
6	Q	F	var43	Wenn Sie das Fundbüro in den letzten 5 Jahren genutzt haben: Wie zufrieden sind Sie mit den folgenden Aspekten der Nutzung?
7	SQ		var43scale	Öffnungszeiten
8	SQ		var431	telefonische Erreichbarkeit
9	SQ		var432	Onlineterminvergabe
10	SQ		var433	Kommunikation per E-Mail
6	A		1	sehr zufrieden
6	A		2	eher zufrieden
6	A		3	teils/teils
6	A		4	eher unzufrieden
6	A		5	sehr unzufrieden
6	A		6	weiß nicht
11	Q	L	var18	Sind Sie?
11	A		0	männlich
11	A		1	weiblich
11	A		2	keine Angaben
12	Q	N	var20	Seit wann haben Sie ununterbrochen Ihren Hauptwohnsitz in Leipzig oder in einem der seit 1990 eingemeindeten Ortsteile? Bitte geben Sie das Jahr an
13	Q	L	var26	Welche der folgenden Angaben trifft fu?r Sie hauptsa?chlich zu? 
13	A		1	Erwerbsta?tige/-r (auch Auszubildende/-r, geringfu?gig Bescha?ftigte/-r, o?ffentlich gefo?rderte Bescha?ftigung, Altersteil-, Elternzeit)
13	A		2	Arbeitslose/-r, Arbeitssuchende/-r bzw. in einer Umschulungsmaßnahme befindlich
13	A		3	Rentner/-in oder Pensiona?r/-in (Alters- und Erwerbsunfa?higkeitsrente)
13	A		4	Student/-in oder Schu?ler/-in 
13	A		5	etwas anderes (z. B. Hausfrau/Hausmann)
13	A		6	keine Angaben
14	Q	L	var28	Welchen höchsten beruflichen Abschluss haben Sie?
14	A		1	Universitäts-/Hochschul-/Fachhochschulabschluss 
14	A		2	Meister-/Technikerausbildung oder Fachschulabschluss (auch der ehem. DDR) 
14	A		3	abgeschlossene Berufsausbildung, Teilfacharbeiter/-in 
14	A		4	noch Studierende/r noch Auszubildende/-r 
14	A		5	ohne abgeschlossene Berufsausbildung 
14	A		6	keine Angaben
