id	class	type/scale	name	text
	SL		surveyls_language	de
	SL		surveyls_title	PEG 2013 - Übernachtungsgäste
1	Q	L	bereitsgast	1. Wie oft waren Sie bereits Übernachtungsgast in Potsdam? (inkl. derz. Aufenthalt)
1	A		1	zum ersten Mal
1	A		2	2- bis 3-mal
1	A		3	häufiger als 3-mal
2	Q	L	unterkunft	2. Welche Unterkunfsform haben Sie gewählt?
2	A		1	Hotel
2	A		2	Gästehaus/Pension (gemietet)
2	A		3	Ferienhaus (gemietet)
2	A		4	Jugendherberge
2	A		5	Privatzimmer/FeWo/Ferienhaus ohne Übernachtungskosten
2	A		6	Wohnwagen/-mobil
2	A		7	Schiffs-/Bootsurlaub
2	A		8	Erholungs-/Ferien-/Kinderferien-Heim
2	A		9	Urlaub auf dem Reiterhof
2	A		10	Hotel garni
2	A		11	Gasthof
2	A		12	Ferienwohnung/Appartement (gemietet)
2	A		13	Verwandte/Bekannte
2	A		14	Feriendorf/-park/Clubanlage
2	A		15	Campinga mit Zelt
2	A		16	Klinik/Krankenhaus/Sanatorium
2	A		17	Urlaub auf dem Bauernhof
2	A		18	Urlaub auf dem Winzerhof
2	A		19	Sonstiges,
3	Q	S	unterkunfto	und zwar:
4	Q	L	aufenthaltsart	3. Als was für eine Art Aufenthalt würden Sie den gegenwärtigen am ehesten bezeichnen?
4	A		1	Städtereise
4	A		2	Erholungsurlaub
4	A		3	Verwandten-/Bekanntenbesuch
4	A		4	Einkaufsaufenthalt
4	A		5	Wanderurlaub
4	A		6	Radwanderurlaub
4	A		7	Tagungs-/Seminaraufenthalt
4	A		8	Ausstellungs-/Messebesuch
4	A		9	Montage-/Bauarbeitenaufenthalt
4	A		10	Sonstige Geschäftsreise
4	A		11	Aktivurlaub
4	A		12	Besicht.-/Bildungs-/Studienreise
4	A		13	Gesundheitsurlaub/Kur
4	A		14	Klinikaufenthalt
4	A		15	Betriebs-/Vereinsfahrt
4	A		16	Strand-/Bade-/Sonnenurlaub
4	A		17	Bootsurlaub
4	A		18	Veranstaltungs-/Eventbesuch
4	A		19	Reiturlaub
4	A		20	Urlaub auf dem Bauern-/Winzerhof
4	A		21	Rundreise (innerhalb BRB)
4	A		22	Rundreise (auch Ziele außerhalb BRB)
4	A		23	Sonstiges,
5	Q	S	aufenthaltsarto	und zwar:
6	Q	M	infoquelle	4a. Wenn Sie bereits vor dem gegenwärtigen Aufenthalt Informationen über Potsdam hatten, woher stammten diese? (Mehrfachantworten möglich)
6	A		1	keine Information
6	A		2	Bekannte/Verwandte/Kollegen
6	A		3	Reisebüro
6	A		4	Reiseberichte/Reportagen im TV/Radio
6	A		5	Reiseberichte in Tageszeit./Zeitschrift
6	A		6	Anzeigen Tageszeit./Zeitschrift
6	A		7	Reiseführer/Reiseliteratur
6	A		8	Unterkunftsverzeichnis/Ortsprospekte
6	A		9	Beratung durch Tourist-Info
6	A		10	Messen/Ausstellungen
6	A		11	eigene Erfahrung
6	A		12	Internet (weiter mit 4b.)
6	A		13	Sonstiges,
7	Q	S	infoquelleo	und zwar:
8	Q	M	internet	4b. Welche Informationsquellen haben Sie im Internet genutzt? (Mehrfachantworten möglich)
8	A		1	www.potsdam.de
8	A		2	www.potsdamtourismus.de
8	A		3	www.reiseland-brandenburg.de
8	A		4	Internetseiten Reiseveranstalter/-büros
8	A		5	Internetseiten der Betriebe
8	A		6	Internetsuchmaschine
8	A		7	Buchungs- oder Bewertungsportale
8	A		8	Soziale Netzwerke im Internet (z. B. Facebook, Twitter)
8	A		9	Sonstige,
9	Q	S	interneto	und zwar:
10	Q	L	mobil	4c. Nutzen Sie während Ihres Aufenthaltes mobile Websites, Apps oder telefonische Informationsangebote über das Mobiltelefon?
10	A		1	ja
10	A		2	nein (weiter mit 6.)
11	Q	M	mobilart	4d. Wenn ja, welche? (Mehrfachantworten möglich)
11	A		1	mobile Websites
11	A		2	Apps
11	A		3	telefonische Informationsangebote über das Mobiltelefon
12	Q	F	merkmale	5. Inwieweit verbinden Sie die genannten Merkmale mit Potsdam?
13	SQ		merkmale1	Schlösser, Parks und Gärten
14	SQ		merkmale2	Kunst und Kultur
15	SQ		merkmale3	Film- und Medienlandschaft
16	SQ		merkmale4	Stadt der Wissenschaft
17	SQ		merkmale5	Familienfreundlichkeit
18	SQ		merkmale6	Sportstadt
19	SQ		merkmale7	Stadt zum Einkaufen und Shoppen
20	SQ		merkmale8	Stadt am Wasser
12	A		1	eher ja
12	A		2	teilweise
12	A		3	eher nein
21	Q	S	positiv	6a. In welchem Zusammenhang haben Sie Potsdam besonders in den letzten 12 Monaten in den Medien wahrgenommen? (positiv, 1 Nennung)
22	Q	S	negativ	6b. In welchem Zusammenhang haben Sie Potsdam besonders in den letzten 12 Monaten in den Medien wahrgenommen? (negativ, 1 Nennung)
23	Q	L	buchungzeit	7a. Wie lange vor der Reise haben Sie Ihren Aufenthalt gebucht?
23	A		1	direkt vor Ort oder vor der Anreise
23	A		2	weniger als einen Monat vorher
23	A		3	zwischen einem und sechs Monaten vorher
23	A		4	sechs Monate vorher oder länger
23	A		5	keine Buchung getätigt (weiter mit 8.)
24	Q	L	wiegebucht	7b. Wie haben Sie Ihren Aufenthalt gebucht?
24	A		1	persönlich (Tel./Fax/Brief/E-Mail)
24	A		2	Internet
24	A		3	Sonstiges,
25	Q	S	wiegebuchto	und zwar:
26	Q	L	wogebucht	7c. Bei wem haben Sie Ihren Aufenthalt gebucht?
26	A		1	Reisebüro/Reiseveranstalter
26	A		2	bei örtlicher Tourist-Info
26	A		3	direkt beim Vermieter/Hotel
26	A		4	bei einem Internetportal bzw. Computerreservierungssystem
26	A		5	über Firma/Verein
26	A		6	über Krankenkasse
26	A		7	Sonstiges,
27	Q	S	wogeuchto	und zwar:
28	Q	L	wasgebucht	7d. Was haben Sie gebucht?
28	A		1	nur Übernachtung
28	A		2	Pauschalreise
28	A		3	Sonstiges,
29	Q	S	wasgebuchto	und zwar:
30	Q	L	verkehrsmittel	8. Welches Verkehrsmittel haben Sie für die Anreise überwiegend genutzt?
30	A		1	Taxi
30	A		2	Kleinbus
30	A		3	PKW
30	A		4	Motorrad
30	A		5	Fahrrad
30	A		6	Flugzeug
30	A		7	Reisebus
30	A		8	Fern-/Linien-/Regionalbus
30	A		9	Bahn/S-Bahn
30	A		10	Reisemobil/Wohnwagen
30	A		11	Boot/Schiff
30	A		12	Sonstiges,
31	Q	S	verkehrsmittelo	und zwar:
32	Q	M	begleitung	9a. Sind Sie allein oder in Begleitung verreist? (Mehrfachantworten möglich)
32	A		1	allein
32	A		2	mit Arbeitskoll./Geschäftsfreunden
32	A		3	mit PartnerIn
32	A		4	mit Kindern/mit der Familie
32	A		5	mit Freunden/Bekannten
32	A		6	als Verein/Club
32	A		7	Sonstiges,
33	Q	S	begleitungo	und zwar:
34	Q	L	persanzahl	9b. Mit wie vielen Personen - inkl. Ihrer eigenen Person - sind Sie unterwegs?
34	A		1	allein
34	A		2	zu zweit
34	A		3	3-5 Personen
34	A		4	mehr als 5 Personen
35	Q	L	kinderanzahl	9c. Mit wie vielen Kindern reisen Sie?
35	A		1	0 (weiter mit 10.)
35	A		2	1
35	A		3	3
35	A		4	4
35	A		5	mehr als 4
36	Q	F	kinderalter	9d. Wie alt sind diese Kinder?
37	SQ		kinderalter1	Kind 1:
38	SQ		kinderalter2	Kind 2:
39	SQ		kinderalter3	Kind 3:
40	SQ		kinderalter4	Kind 4:
36	A		1	0-3 J.
36	A		2	4-6 J.
36	A		3	7-12 J.
36	A		4	13-16 J.
36	A		5	17-18 J.
36	A		6	über 18 J.
41	Q	S	gefallen1	10. Was hat Ihnen während Ihres Aufenthaltes in Potsdam am besten gefallen? (max. 3 Nennungen)
42	Q	S	gefallen2	2.
43	Q	S	gefallen3	3.
44	Q	S	gestoert1	11. Was hat Sie während Ihres Aufenthaltes in Potsdam gestört? Was hat Ihnen nicht gefallen? (max. 3 Nennungen)
45	Q	S	gestoert2	2.
46	Q	S	gestoert3	3.
47	Q	F	aspekte	12. Wie bewerten Sie folgende Aspekte in Potsdam? (1 Nennung je Aspekt)
48	SQ		aspekte1	Unterkunftsmöglichkeiten allgemein
49	SQ		aspekte2	Genutzte Unterkunft
50	SQ			Gastronomie
51	SQ			Freizeitmöglichkeiten allgemein
52	SQ			Unterhaltungsangebot allgemein
53	SQ			Kulturhistorische Sehenswürdigkeiten
54	SQ			kulturelle Veranstaltungen
55	SQ			Museen/Ausstellungen
56	SQ			Wassertouristisches Angebot
57	SQ			Landschaft
58	SQ			Tourist-Information
59	SQ			Freundlichkeit des Personals allgemein
60	SQ			Gastfreundlichkeit
61	SQ			Preis-Leistungs-Verhältnis
62	SQ			Kinderfreundlichkeit
63	SQ			Fahrradfreundlichkeit
64	SQ			Barrierefreiheit
65	SQ			ÖPNV-Angebot
66	SQ			Einkaufsmöglichkeiten
67	SQ			Sauberkeit
68	SQ			Potsdam insgesamt/Ihr Gesamteindruck
47	A		1	ausgezeichnet
47	A		2	sehr gut
47	A		3	gut
47	A		4	weniger gut
47	A		5	schlecht
47	A		6	weiß nicht
69	Q	S	aspekte0	Möchten Sie dieser Frage ggf. noch etwas anmerken?
70	Q	S	aktivitaet1	13a. Welche Aktivität haben Sie während Ihres Aufenthaltes bereits ausgeübt bzw. werden Sie noch ausüben? (Nennung 1)
71	Q	S	aktivitaet2	13b. Welche Aktivität haben Sie während Ihres Aufenthaltes bereits ausgeübt bzw. werden Sie noch ausüben? (Nennung 2)
72	Q	S	aktivitaet3	13c. Welche Aktivität haben Sie während Ihres Aufenthaltes bereits ausgeübt bzw. werden Sie noch ausüben? (Nennung 3)
73	Q	M	angebote	14. Welche Angebote/Sehenswürdigkeiten in Potsdam haben Sie während Ihres jetzigen Aufenthaltes genutzt/besucht bzw. werden Sie noch nutzen/besuchen? (Mehrfachantworten möglich)
73	A		1	Tourist-Information
73	A		2	Stadtrundfahrt
73	A		3	Schlösser und Parks
73	A		4	Historische Innenstadt
73	A		5	Schifffahrt
73	A		6	Biospähre
73	A		7	Filmpark Babelsberg
73	A		8	kulturelle Veranstaltungen
73	A		9	Museen/Ausstellungen
74	Q	L	parkbeitrag	15. Die Stiftung Preußische Schlösser und Gärten Berlin-Brandenburg bittet seit Anfang 2006 ihre Gäste um einen freiwilligen Beitrag für den Park Sanssouci. Wären Sie bereit, einen Beitrag für den Besuch des Parks Sanssouci zu bezahlen?
74	A		1	Nein, ich glaube der Park muss allen kostenlos zur Verfügung stehen.
74	A		2	Ja, aber auf freiwilliger Basis.
74	A		3	Ja, aber der Eintritt sollte zur Pflicht für alle werden und höchstens 2 EUR betragen.
74	A		4	Ja, aber der Eintritt sollte zur Pflicht für alle werden und höchstens 5 EUR betragen.
74	A		5	weiß nicht
75	Q	L	cardkennen	16a. Kennen Sie die Potsdam & Berlin WelcomeCard?
75	A		1	ja
75	A		2	nein
76	Q	L	cardnutzen	16b. Nutzen Sie die Potsdam & Berlin WelcomeCard?
76	A		1	ja
76	A		2	nein
77	Q	L	erwartungen	17. Wurden die Erwartungen, die Sie vor Ihrem Aufenthalt an uns hatten...
77	A		1	stark übertroffen
77	A		2	übertroffen
77	A		3	erfüllt
77	A		4	enttäuscht
77	A		5	sehr enttäuscht
78	Q	L	empfehlen	18. Würden Sie vor dem Hintergrund Ihres jetzigen Aufenthaltes einen Urlaub in Potsdam an Ihre Freunde und Bekannte weiterempfehlen?
78	A		1	Ja, ganz sicher.
78	A		2	Ja, wahrscheinlich.
78	A		3	Weiß ich nicht.
78	A		4	Eher unwahrscheinlich.
78	A		5	Nein, ganz sicher nicht.
79	Q	L	rueckkehr	19. Können Sie sich vorstellen, noch einmal nach Potsdam zu kommen?
79	A		1	Ja, in den nächsten 12 Monaten.
79	A		2	Ja, in den nächsten 2-3 Jahren.
79	A		3	Ja, zu einem späteren Zeitpunkt.
79	A		4	Nein, wahrscheinlich nicht.
79	A		5	Nein, auf keinen Fall.
80	Q	N	ausgaben	20a. Wie viel EURO geben Sie während Ihres Aufenthaltes in Potsdam insgesamt aus?
81	Q	N	ausgaben2	20b. Auf wie viele Personen bezieht sich diese Angabe?
82	Q	N	unterkunftkosten	20c. Wie viel des genannten Betrags geben Sie insgesamt für die Übernachtung aus?
83	Q	N	naechte	21. Wie viele Nächte verbringen Sie hier?
84	Q	N	alter	22. Darf ich fragen, wie alt Sie sind?
85	Q	L	bundesland	23. Wenn Sie Ihren Hauptwohnsitz in Deutschland haben, aus welchem Bundesland kommen Sie?
85	A		1	Baden-Württemberg
85	A		2	Bayern
85	A		3	Berlin
85	A		4	Brandenburg
85	A		5	Bremen
85	A		6	Hamburg
85	A		7	Hessen
85	A		8	Mecklenburg-Vorpommern
85	A		9	Niedersachsen
85	A		10	Nordrhein-Westfalen
85	A		11	Rheinland-Pfalz
85	A		12	Saarland
85	A		13	Sachsen
85	A		14	Sachsen-Anhalt
85	A		15	Schleswig-Holstein
85	A		16	Thüringen
86	Q	S	ausland	24. Wenn Sie Ihren Hauptwohnsitz nicht in Deutschland haben, in welchem Land haben Sie diesen?
87	Q	L	abschluss	25. Welchen höchsten allgemeinbildenden Schulabschluss haben Sie?
87	A		1	Volks-/Hauptschulabschluss
87	A		2	Mittlere Reife, Realschulabschluss, POS
87	A		3	Abitur/Fachabitur
87	A		4	(Fach-)Hochschul-/Universitätsabschluss
87	A		5	noch Schüler/-in in allgemeinbildende Schule
87	A		6	sonstiger Abschluss
87	A		7	keine Angabe
88	Q	L	einkommen	26. Wenn Sie einmal alles zusammenrechnen, in welcher Größenordnung liegt das Nettoeinkommen des Haushaltes, in dem Sie leben, pro Monat? (Das Einkommen aller Haushaltsmitglieder aus Lohn, Gehalt, Renten, Vermietung, öffentlicher Unterstützung (Kindergeld, ALG II, Wohngeld etc.) abzüglich Steuern und Sozialversicherungen.)
88	A		1	unter 900 €
88	A		2	900 bis unter 1200 €
88	A		3	1200 bis unter 2000 €
88	A		4	2000 bis unter 3000 €
88	A		5	3000 bis unter 4000 €
88	A		6	4000 bis unter 5000 €
88	A		7	5000 € und mehr
88	A		8	keine Angabe
89	Q	L	geschlecht	27. Geschlecht:
89	A		1	männlich
89	A		2	weiblich
