id	class	type/scale	name	text
	S		language	de
	SL		surveyls_language	de
	SL		surveyls_title	European Values Study 2017
1	G	1	.	.
1	Q	L	v225	Sind Sie ein Mann oder eine Frau?
1	A		3	Eine Frau
1	A		2	Ein Mann
1	A		1	Keine Antwort
2	Q	N	v226	Bitten geben Sie Ihr Geburtsjahr an
3	Q	L	v227	Wurden Sie in Deutschland geboren?
3	A		4	Ja
3	A		3	Nein
3	A		2	Weiss nicht
3	A		1	Keine Antwort
4	Q	L	v169	Haben Sie die deutsche Staatsbürgerschaft?
4	A		4	Ja
4	A		3	Nein
4	A		2	Weiss nicht
4	A		1	Keine Antwort
5	Q	L	v170	Wie stolz sind Sie darauf, dass Sie die deutsche Staatsburgerschaft haben? Sind Sie...
5	A		6	Sehr stolz
5	A		5	Ziemlich stolz
5	A		4	Nicht sehr stolz
5	A		3	Uberhaupt nicht stolz
5	A		2	Weiss nicht
5	A		1	Keine Antwort
6	Q	L	v174	Welcher politischen Partei stehen Sie am nachsten? 
6	A		8	CDU CSU
6	A		7	SPD
6	A		6	FDP
6	A		5	Bundnis 90 Die Grunen
6	A		4	Die Linke
6	A		3	AFD
6	A		2	Weiss nicht
6	A		1	Keine Antwort
7	Q	S	v174a	Einer anderen Partei bitte hier eintragen
8	Q	F	section	Bitte sagen Sie mir fuer jeden Bereich, ob er Ihnen sehr wichtig, ziemlich wichtig, nicht wichtig oder uberhaupt nicht wichtig ist.
9	SQ		sectionscale	Arbeit
10	SQ		section1	Familie
11	SQ		section2	Freunde und Bekannte
12	SQ		section3	Freizeit
13	SQ		section4	Politik
14	SQ		section5	Religion
8	A		1	Sehr wichtig 
8	A		2	Ziemlich wichtig  
8	A		3	Nicht wichtig  
8	A		4	Ueberhaupt nicht wichtig  
8	A		5	Weiss nicht
8	A		6	Keine Antwort
9	Q	L	v7	Ganz allgemein wuerden Sie sagen Sie sind zurzeit
9	A		6	Sehr gluecklich
9	A		5	Ziemlich gluecklich
9	A		4	Nicht sehr gluecklich
9	A		3	Ueberhaupt nicht gluecklich
9	A		2	Weiss nicht
9	A		1	Keine Antwort
10	Q	L	v8	Wie schaetzen Sie insgesamt Ihren Gesundheitszustand ein?
10	A		7	Sehr gut
10	A		6	Gut
10	A		5	Durchschnittlich
10	A		4	Schlecht
10	A		3	Sehr schlecht
10	A		2	Weiss nicht
10	A		1	Keine Antwort
11	Q	L	v21	Waren Sie in den vergangenen 6 Monaten ehrenamtlich taetig
11	A		4	Ja
11	A		3	Nein
11	A		2	Weiss nicht
11	A		1	Keine Antwort
12	Q	L	v31	Wuerden Sie ganz allgemein sagen, dass man den meisten Menschen vertrauen kann, oder dass man im Umgang mit Menschen nicht vorsichtig genug sein kann? 
12	A		4	Man kann den meisten vertrauen 
12	A		3	Man kann nicht vorsichtig genug sein 
12	A		2	Weiss nicht
12	A		1	Keine Antwort
13	Q	F	life	Ich moechte Ihnen jetzt verschiedene Bereiche vorlesen und Sie fragen, wie wichtig diese in Ihrem Leben sind. Bitte sagen Sie mir fuer jeden Bereich, ob er Ihnen sehr wichtig, ziemlich wichtig, nicht wichtig oder ueberhaupt nicht wichtig ist.
14	SQ		lifescale	Ihre Familie
15	SQ		life1	Menschen in Ihrer Nachbarschaft 
16	SQ		life2	Menschen, die Sie persoenlich kennen 
17	SQ		life3	Menschen, denen Sie zum ersten Mal begegnen 
18	SQ		life4	Menschen anderer Religion 
19	SQ		life5	Menschen anderer Nationalitaet 
13	A		1	Vertraue voellig
13	A		2	Vertraue ziemlich
13	A		3	Vertraue kaum
13	A		4	Vertraue gar nicht
13	A		5	Weiss nicht
13	A		6	Keine Antwort
14	Q	L	v38	Bitte geben Sie an, wieviel Entscheidungsfreiheit und Einfluss Sie nach Ihrem Empfinden darauf haben, wie Ihr weiteres Leben ablaeuft? 
14	A		12	1 = Ueberhaupt keine Freiheit
14	A		11	2
14	A		10	3
14	A		9	4
14	A		8	5
14	A		7	6
14	A		6	7
14	A		5	8
14	A		4	9
14	A		3	10 = Voellige Freiheit
14	A		2	Weiss nicht
14	A		1	Keine Antwort
15	Q	L	v39	Wenn Sie einmal alles beruecksichtigen, wie zufrieden sind Sie insgesamt zurzeit mit Ihrem Leben?
15	A		12	1 = Ueberhaupt nicht zufrieden
15	A		11	2
15	A		10	3
15	A		9	4
15	A		8	5
15	A		7	6
15	A		6	7
15	A		5	8
15	A		4	9
15	A		3	10 = Voellig zufrieden
15	A		2	Weiss nicht
15	A		1	Keine Antwort
16	Q	M	work	Hier steht Verschiedenes ueber die berufliche Arbeit. Bitte sagen Sie mir, was davon Sie persoenlich an einem Beruf fuer ganz besonders wichtig halten
17	SQ		work1	Gute Bezahlung
18	SQ		work2	Angenehme Arbeitszeiten
19	SQ		work3	Die Moeglichkeit eigene Initiative zu entfalten
20	SQ		work4	Grosszuegige Urlaubsreglungen
21	SQ		work5	Ein Beruf bei dem man das Gefuehl hat etwas erreichen zu koennen
22	SQ		work6	Ein Beruf mit Verantwortung
16	A		1	.
17	Q	L	v51	Gehoeren Sie einer Religionsgemeinschaft an?
17	A		4	Ja (Weiter mit Frage 14)
17	A		3	Nein
17	A		2	Weiss nicht  (Weiter mit Frage 14)
17	A		1	Keine Antwort (Weiter mit Frage 14)
18	Q	L	v52	Welcher Religionsgemeinschaft gehoeren Sie an?
18	A		8	Der roemisch katholischen Kirche
18	A		7	Der evangelischen Kirche
18	A		6	Einer evangelischen Freikirche
18	A		5	Der griechisch orthodoxen Kirche
18	A		4	Der russisch orthodoxen Kirche
18	A		3	Dem Islam
18	A		2	Weiss nicht
18	A		1	Keine Antwort
19	Q	S	v52a	Einer anderen Religionsgemeinschaft, und zwar bitte hier eintragen
20	Q	L	v54	Haben Sie jemals einer Religionsgemeinschaft angehoert?
20	A		4	Ja
20	A		3	Nein
20	A		2	Weiss nicht
20	A		1	Keine Antwort
21	Q	M	skills	Welche dieser Eigenschaften von Kindern sind nach Ihrer Meinung am sinnvollsten? 
22	SQ		skills1	Gutes Benehmen
23	SQ		skills2	Unabhaengigkeit Selbststaendigkeit
24	SQ		skills3	Fleiss
25	SQ		skills4	Verantwortungsgefuehl
26	SQ		skills5	Vorstellungskraft Fantasie
27	SQ		skills6	Toleranz und Respekt gegenueber Mitmenschen
28	SQ		skills7	Sparsamkeit im Umgang mit Geld und Dingen
29	SQ		skills8	Entschlossenheit, Ausdauer
30	SQ		skills9	Religioeser Glaube
31	SQ		skills10	Selbstlosigkeit
32	SQ		skills11	Gehorsam
21	A		1	.
