id	class	type/scale	name	text
	S		language	de
	SL		surveyls_language	de
	SL		surveyls_title	Umfrage 2018
1	G	1	.	.
1	Q	L	krankenhaus	Gab es bei Ihrem Kind in den letzten 12 Monaten gesundheitliche Probleme, die einen Krankenhausaufenthalt notwendig machten?
1	A		2		Nein
1	A		1		Ja
2	Q	M	erkrankungen	Ist im Rahmen einer aerztlichen Untersuchung bei Ihrem Kind einmal eine der folgenden Erkrankungen oder Stoerungen festgestellt worden?
3	SQ		erkrankungen1	Asthma
4	SQ		erkrankungen2	Chronische Bronchitis
5	SQ		erkrankungen3	Heuschnupfen
6	SQ		erkrankungen4	Schwerhoerigkeit
7	A		1		.