id	class	type/scale	name	text
	S		language	de
	SL		surveyls_language	de
	SL		surveyls_title	European Values Study 2017
1	G	1	.	.
1	Q	L	Geschlecht	Welches Geschlecht haben Sie?
1	A		3	männlich
1	A		2	weiblich
1	A		1	anderes
