id	class	type/scale	name	text
	S		language	de
	SL		surveyls_language	de
	SL		surveyls_title	LifE
	SL		surveyls_subtitle	Lebensläufe ins frühe Erwachsenenalter
1	G	1	.	Partnerschaften
1	Q	L	Familienstand	Welchen Familienstand haben Sie derzeit?
1	A		5	Verheiratet und lebe mit EhepartnerIn zusammen
1	A		4	Verheiratet, aber in Trennung lebend
1	A		3	Geschieden 
1	A		2	Verwitwet 
1	A		1	Ledig
2	Q	M	Hhalt	Wie setzt sich Ihr Haushalt gegenwärtig zusammen? Kreuzen Sie bitte an, wer alles bei Ihnen im gleichen Haushalt lebt.
3	SQ		Hhalt1	Ich wohne alleine.
4	SQ		Hhalt2	EhepartnerIn bzw. LebenspartnerIn.
5	SQ		Hhalt3	Eigene Kinder (leibliche Kinder und Adoptivkinder)
6	SQ		Hhalt4	Stiefkinder (Kinder des (Ehe-)partners)
7	SQ		Hhalt5	Eigene Eltern, Schwiegereltern
2	A		1	.
8	Q	S	HHalt6	Andere Personen: 
9	Q	F	Beziehung	Wie gestalten sich die Beziehungen zu Ihrer jetzigen (Ehe-)Partnerin bzw. Ihrem jetzigen (Ehe-)Partner? In unserer Ehe bzw. In unserer Partnerschaft …
10	SQ		Beziehungscale	… kann ich ihr bzw. ihm alles erzählen, was mich beschäftigt.
11	SQ		Beziehung1	… gibt es Missstimmungen und Spannungen.
12	SQ		Beziehung2	… findet sie bzw. er gut, was ich mache. 
13	SQ		Beziehung3	… kommt wegen Kleinigkeiten gereizte Stimmung auf.
9	A		6	Immer
9	A		5	Sehr oft
9	A		4	Oft
9	A		3	Manchmal
9	A		2	Selten 
9	A		1	Nie 
14	Q	F	ArbeitHhalt	Wie teilen Sie mit Ihrer (Ehe-)Partnerin bzw. Ihrem (Ehe-)Partner die Arbeiten im gemeinsamen Haushalt?
15	SQ		ArbeitHhaltscale	Zubereiten der Mahlzeiten
16	SQ		ArbeitHhalt2	Spülen und aufräumen nach den Mahlzeiten
17	SQ		ArbeitHhalt3	Lebensmittel einkaufen
18	SQ		ArbeitHhalt4	Putzen der Wohnung und des Hauses
19	SQ		ArbeitHhalt5	Wäsche waschen
14	A		7	Stets die Frau
14	A		6	Meist die Frau
14	A		5	Etwa öfter die Frau
14	A		4	Etwas öfter der Mann
14	A		3	Meist der Mann
14	A		2	Stets der Mann
14	A		1	Andere Person(en)
20	Q	L	Schulabschluss	Nennen Sie uns bitte den höchsten Schulabschluss Ihrer (Ehe-)Partnerin bzw. Ihres (Ehe-)Partners. Wenn zur Zeit keine Partnerschaft: Bitte für die letzte Partnerschaft ausfüllen. 
20	A		6	Volksschul-, Hauptschulabschluss
20	A		5	Mittlere Reife, 10. Klasse, Realschulabschluss, Fachschule
20	A		4	Fachhochschulreife, fachgebundene Hochschulreife, Abschluss einer Fachoberschule
20	A		3	Abitur, allgemeine Hochschulreife
20	A		2	Von der Schule abgegangen ohne Abschluss.
20	A		1	Anderer Schulabschluss
21	Q	N	berufTätigkeit1	Durchschnittliche Arbeitszeit der Partnerin bzw. des Partners je Woche:
22	Q	N	berufTätigkeit3	Monatliches Nettoeinkommen in Euro
