id	class	type/scale	name	text
	S		language	de
	SL		surveyls_title	de
	SL		surveyls_title	Umfrage 2018
1	Q	L	krankenhaus	Frage L
1	A		2	Nein
1	A		1	Ja
2	Q	M	erkrankungen	Frage M
3	SQ		erkrankungen1	Asthma
4	SQ		erkrankungen2	Chronische Bronchitis
5	SQ		erkrankungen3	Heuschnupfen
2	A		1	.
7	Q	F	befinden	Wie sehen Sie Ihr Kind heute?
8	SQ		befinden1	Befinden1
9	SQ		befinden2	Befinden2
10	SQ		befinden3	Mein Kind ist neugierig und aktiv
7	A		1	Trifft voll zu
7	A		2	Trifft eher zu
7	A		3	Trifft eher nicht zu
7	A		4	Trifft gar nicht zu
