id	class	type/scale	name	text
	S		language	de
	SL		surveyls_language	de
	SL		surveyls_title	Fragebogen für Arbeiter
1	G	1	Besitzverhältnisse	.
1	Q	L	shop	Gehört das Unternehmen, in dem Sie arbeiten, Privatkapitalisten oder einer Aktiengesellschaft?
1	A		3	Privatkapitalisten
1	A		2	Aktiengesellschaft
1	A		1	weiß nicht
2	Q	L	childage	Was ist das Mindestalter, zu dem Kinder eingestellt werden?
2	A		1	jünger als 13 Jahre
2	A		2	13 Jahre
2	A		3	14 Jahre
2	A		4	15 Jahre
2	A		5	16 Jahre
2	A		6	älter als 16 Jahre
2	A		8	weiß nicht
2	G	2	Stadt – Land	.
3	Q	L	shoplocal	Liegt die Arbeitsstätte auf dem Lande oder in der Stadt?
3	A		2	auf dem Lande
3	A		1	in der Stadt
4	Q	L	agrilabor	Falls Ihr Gewerbe auf dem Lande betrieben wird: bildet es Ihre hauptsächliche Erwerbsquelle oder betreiben Sie es zusätzlich zu oder gemeinsam mit der Landwirtschaft?
4	A		2	hauptsächliche Erwerbsquelle
4	A		1	zusätzlich zu der Landwirtschaft
3	G	3	Sicherheit	Die Sicherheit am Arbeitsplatz ist ein wichtiges Thema. Wie ist die Sicherheit an Ihrer Arbeitsstelle gewährleistet?
5	Q	M	safety	Sind die Antriebskraft, die Transmissionsvorrichtungen und die laufenden Maschinen mit ausreichenden Schutzvorrichtungen gegen Unfälle versehen?
6	SQ		safety1	Antriebskraft
7	SQ		safety2	Transmissionsvorrichtungen
8	SQ		safety3	Maschinen
5	A		1	.
4	G	4	Hygiene	
9	Q	F	hyg	Wie zufrieden sind Sie mit den hygienischen Bedingungen der Arbeitsstätte in Bezug auf
10	SQ		hygscale	die Größe des Platzes
11	SQ		hyg1	die Lüftung
12	SQ		hyg2	die Temperatur
13	SQ		hyg3	ob die Wände geweißt sind
14	SQ		hyg4	Abortverhältnisse
15	SQ		hyg5	allgemeine Reinlichkeit
16	SQ		hyg6	Maschinenlärm
17	SQ		hyg7	Staub
18	SQ		hyg8	Feuchtigkeit
9	A		1	sehr zufrieden
9	A		2	eher zufrieden
9	A		3	eher unzufrieden
9	A		4	sehr unzufrieden
9	A		5	trifft nicht zu
19	Q	S	accidents	Berichten Sie aus eigener Erfahrung von Unfällen, die Verletzungen bzw. den Tod von Arbeitern verursachten.
5	G	5	Freizeitausgleich	.
20	Q	N	holidays	Wieviel Feiertage haben Sie während des Jahres?
