id	class	type/scale	name	text
	S		language	de
	SL		surveyls_language	de
	SL		surveyls_title	Umfrage 2018
1	G	1	Krankenhaus	.
1	Q	L	krank	Gab es bei Ihrem Kind in den letzten 12 Monaten gesundheitliche Probleme, die einen Krankenhausaufenthalt notwendig machten?
1	A		2	Nein
1	A		1	Ja
5	G	5	Erkrankungen	
5	Q	M	erkrankt	Ist im Rahmen einer ärztlichen Untersuchung bei Ihrem Kind einmal eine der folgenden Erkrankungen oder Störungen festgestellt worden?
6	SQ		erkrankt1	Asthma
7	SQ		erkrankt2	Chronische Bronchitis
8	SQ		erkrankt3	Mittelohrentzündung
9	SQ		erkrankt4	Heuschnupfen
10	SQ		erkrankt5	Neurodermitis
5	A		1	.
11	G	11	Befinden	
11	Q	F	kind	Wie sehen Sie Ihr Kind heute?
12	SQ		kindscale	Mein Kind ist meist fröhlich und zufrieden
13	SQ		kind1	Mein Kind ist leicht erregbar und weint häufig
14	SQ		kind2	Mein Kind ist schwer zu trösten
15	SQ		kind3	Mein Kind ist neugierig und aktiv
16	SQ		kind4	Die Gesundheit meines Kindes macht mir Sorgen
11	A		1	Trifft voll zu
11	A		2	Trifft eher zu
11	A		3	Trifft eher nicht zu
11	A		4	Trifft gar nich zu
