id	class	type/scale	name	text
	S		language	de
	SL		surveyls_language	de
	SL		surveyls_title	Life Fragebogen
1	G	1	.	.
1	Q	L	e1k1	Ich nehme an der Verlosung des iPad teil.
1	A		2	Ja
1	A		1	Nein
2	G	2	.	Elternhaus
2	Q	L	e2k1V	Früher hatten Menschen häufig geringere Bildungschancen als heute. Bitte nennen Sie uns den höchsten Schulabschluss Ihres Vaters.
2	A		5	Volksschul-, Hauptschulabschluss
2	A		4	Mittlere Reife, 10. Klasse, Realschulabschluss, Fachschulreife
2	A		3	Fachhochschulreife, fachgebundene Hochschulreife, Abschluss einer Fachoberschule
2	A		2	Abitur, allgemeine Hochschulreife
2	A		1	Von der Schule abgegangen ohne Abschluss.
2	A		0	Anderen Schulabschluss, bitte notieren:
3	Q	S	e2k1VS	Anderen Schulabschluss, bitte notieren:
4	Q	N	e2k4VN	Wann wurde Ihr Vater geboren?
5	Q	M	e2k7V	Mit wem lebt Ihr Vater zusammen?
6	SQ		e2k7V1	Gemeinsam mit Ihrer Mutter in einem Haushalt.
7	SQ		e2k7V2	Mit einer anderen Partnerin in einem Haushalt.
8	SQ		e2k7V3	Mit jemand anderem in einem Haushalt.
9	SQ		e2k7V4	Allein.
10	SQ		e2k7V5	In einem Alters- oder Pflegeheim, in betreuter Wohnanlage.
11	SQ		e2k7V6	Sonstiges.
12	SQ		e2k7V7	Kann ich nicht beantworten.
3	A		1	.
3	G	3	.	Wie genau treffen die folgenden Aussagen auf Ihre gegenwärtige Situation zu?
13	Q	F	e2k12Q1	Mein Vater bzw. meine Mutter sind für mich wie gute Freunde.
14	SQ		e2k12Q1scale	Vater
15	SQ		e2k12Q11	Mutter
13	A		1	Trifft genau zu
13	A		2	Trifft eher zu
13	A		3	Trifft eher nicht zu
13	A		4	Trifft gar nicht zu
16	Q	F	e2k12Q2	Mein Vater bzw. meine Mutter mag mich so, wie ich bin.
17	SQ		e2k12Q2scale	Vater
18	SQ		e2k12Q21	Mutter
19	A		1	Trifft genau zu
19	A		2	Trifft eher zu
19	A		3	Trifft eher nicht zu
19	A		4	Trifft gar nicht zu
20	Q	F	e2k12Q3	Ich kann meinem Vater bzw. meiner Mutter alles erzählen, was mich beschäftigt.
21	SQ		e2k12Q3scale	Vater
22	SQ		e2k12Q31	Mutter
20	A		1	Trifft genau zu
20	A		2	Trifft eher zu
20	A		3	Trifft eher nicht zu
20	A		4	Trifft gar nicht zu
