id	class	type/scale	name	text
	S		language	de
	SL		surveyls_language	de
	SL		surveyls_title	Umfrage 2018
1	G	1	.	.
1	Q	L	shop	Gab es bei Ihrem Kind in den letzten 12 Monaten gesundheitliche Probleme, die einen Krankenhausaufenthalt notwendig machten?
1	A		2	Nein
1	A		1	Ja
5	Q	M	safety	Ist im Rahmen einer ärztlichen Untersuchung bei Ihrem Kind einmal eine der folgenden Erkrankungen oder Störungen festgestellt worden?
6	SQ		safety1	Asthma
7	SQ		safety2	Chronische Bronchitis
8	SQ		safety3	Heuschnupfen
5	A		1	.
9	Q	F	hyg	Wie sehen Sie Ihr Kind heute?
10	SQ		hygscale	Mein Kind ist meist fröhlich und zufrieden
11	SQ		hyg1	Mein Kind ist leicht erregbar und weint häufig
12	SQ		hyg2	Mein Kind ist schwer zu trösten
13	SQ		hyg3	Mein Kind ist neugierig und aktiv
14	SQ		hyg4	Die Gesundheit meines Kindes macht mir Sorgen
9	A		1	Trifft voll zu
9	A		2	Trifft eher zu
9	A		3	Trifft eher nicht zu
9	A		4	Trifft gar nich zu
