id	class	type/scale	name	text
	S		language	de
			surveyls_language	de
			surveyls_title	Feebackbogen 
1	G	1	.	.
1	Q	F	feedb	Bitte bewerten Sie die folgenden Aussagen:
2	SQ		feedbscale	Die Seminarinhalte waren relevant für meine praktische Arbeit
3	SQ		feedb1	Die Balance zwischen Input, Kleingruppen-Aktivitäten und Raum für Austausch in der Gesamtgruppen war gelungen
4	SQ		feedb2	Mit der Lernatmosphäre fühlte ich mich wohl
5	SQ		feedb3	Themen und Bedarfe der Teilnehmenden wurden berücksichtig
6	SQ		feedb4	Die Veranstaltung hat mir insgesamt gut gefallen
7	SQ		feedb5	Die Inhalte des Online-Unterrichts waren durch die gewählte Form für mich gut zu erbabien
1	A		1	Trifft zu
1	A		2	Trifft eher zu
1	A		3	Trifft eher nicht zu
1	A		4	Trifft nicht zu
8	S		wuensche	Die Hinweise, Wünsche, Rückmeldung etc. Habe ich zur digitale Aufarbeitung der Inhalte:
9	S		verbesser	Das ist verbesserungswürdig:
10	S		gefallen	Da hat mir besonders gut gefallen:
11	S		gelernt	Da nehme ich für mich aus dem Seminar mit:
12	S		sontiges	Sonstige Bemerkungen:
