id	class	type/scale	name	text
	S		language	de
	SL		surveyls_language	de
	SL		surveyls_title	European Values Study 2017
1	G	1	.	.
1	Q	L	v225	Sind Sie ein Mann oder eine Frau?
1	A		1	Eine Frau
1	A		2	Ein Mann
1	A		9	Keine Antwort
2	Q	N	v226	Bitten geben Sie Ihr Geburtsjahr an
3	Q	L	v227	Wurden Sie in Deutschland geboren?
3	A		1	Ja
3	A		2	Nein
3	A		8	Weiss nicht
3	A		9	Keine Antwort
4	Q	L	v169	Haben Sie die deutsche Staatsburgerschaft?
4	A		1	Ja
4	A		2	Nein
4	A		8	Weiss nicht
4	A		9	Keine Antwort
5	Q	L	v170	Wie stolz sind Sie darauf, dass Sie die deutsche Staatsburgerschaft haben? Sind Sie...
5	A		1	Sehr stolz
5	A		2	Ziemlich stolz
5	A		3	Nicht sehr stolz
5	A		4	Uberhaupt nicht stolz
5	A		8	Weiss nicht
5	A		9	Keine Antwort
6	Q	L	v174	Welcher politischen Partei stehen Sie am nachsten? 
6	A		1	CDU CSU
6	A		2	SPD
6	A		3	FDP
6	A		4	Bundnis 90 Die Grunen
6	A		5	Die Linke
6	A		6	AFD
6	A		8	Weiss nicht
6	A		9	Keine Antwort
7	Q	S	v174a	Einer anderen Partei bitte hier eintragen
8	Q	L	.	.
9	Q	F	Q1	Bitte sagen Sie mir fuer jeden Bereich, ob er Ihnen sehr wichtig, ziemlich wichtig, nicht wichtig oder uberhaupt nicht wichtig ist.
10	SQ		v1	Arbeit
11	SQ		v2	Familie
12	SQ		v3	Freunde und Bekannte
13	SQ		v4	Freizeit
14	SQ		v5	Politik
15	SQ		v6	Religion
9	A		1	Sehr wichtig
9	A		2	Ziemlich wichtig
9	A		3	Nicht wichtig
9	A		4	Ueberhaupt nicht wichtig
9	A		5	Weiss nicht
9	A		9	Keine Antwort
10	G	.	.	.
10	Q	L	v7	Ganz allgemein wuerden Sie sagen Sie sind zurzeit
10	A		1	Sehr gluecklich
10	A		2	Ziemlich gluecklich
10	A		3	Nicht sehr gluecklich
10	A		4	Ueberhaupt nicht gluecklich
10	A		8	Weiss nicht
10	A		9	Keine Antwort
