id	class	type/scale	name	text
	S		language	de
	SL		surveyls_language	de
	SL		surveyls_title	Feedbackfragebogen zum Abschluss des Seminars
1	G	1	.	Fachkompetenzen und Lehrveranstaltung
1	Q	F	self	Bitte bewerten sie die folgenden Aussagen.
2	SQ		selfscale	Ich kann wichtige Begriffe/Sachverhalte aus dieser Lehrveranstaltung wiedergeben.
3	SQ		self1	Ich sehe mich nun in der Lage, eine typische Fragestellung des Themengebietes dieser Lehrveranstaltung zu bearbeiten.
4	SQ		self2	Ich kann die Sachverhalte aus dieser Lehrveranstaltung in der praktischen Arbeit anwenden.
1	A		1	trifft völlig zu
1	A		2	trifft eher zu
1	A		3	teils, teils
1	A		4	trifft eher nicht zu
1	A		5	trifft gar nicht zu
5	Q	F	bal	Wie zufrieden waren sie mit den folgenden Aspekten?
6	SQ		balscale	inhaltlichen Erklärungen
7	SQ		bal1	Kleingruppen-Aktivitäten
8	SQ		bal2	Austauschmöglichkeiten in der Gesamtgruppe
5	A		1	sehr zufrieden
5	A		2	eher zufrieden
5	A		4	eher unzufrieden
5	A		5	sehr unzufrieden
9	Q	F	atmo	Im Seminar…
10	SQ		atmoscale	herrschte ein respektvoller Umgang miteinander.
11	SQ		atmo1	habe ich mich aktiv beteiligt (Fragen, Kommentare, Diskussionen).
12	SQ		atmo2	hatte ich genügend Zeit, über meine Schwierigkeiten mit den Lerninhalten zu diskutieren.
13	SQ		atmo3	der*die Dozierende hat Sachverhalte für mich verständlich vermittelt.
9	A		1	immer
9	A		2	oft
9	A		3	gelegentlich
9	A		4	selten
9	A		5	nie
14	Q	F	mat	Wie hilfreich waren folgende Materialien für Ihr Verständnis des Lehrstoffs?
15	SQ		matscale	die eingesetzten Medien zur Präsentation der Lerninhalte
16	SQ		mat1	die bereitgestellten Aufgaben/Übungen
17	SQ		mat2	die bereitgestellten Skripte, Texte
18	SQ		mat3	die empfohlene Literatur
14	A		1	sehr hilfreich
14	A		2	eher hilfreich
14	A		3	teils, teils
14	A		4	eher nicht hilfreich
14	A		5	gar nicht hilfreich
14	A		6	keine Bereitstellung
19	Q	S	insight	Das nehme ich persönlich aus dem Seminar mit:
