id	class	type/scale	name	text
	S		language	de
	SL		surveyls_language	de
	SL		surveyls_title	Life Fragebogen
1	G	1	.	Wettbewerb
1	Q	L	e1k1	Ich nehme an der Verlosung des iPad teil.
1	A		2	Ja
1	A		1	Nein
2	G	2	.	Elternhaus
2	Q	F	e2k1V	Früher hatten Menschen häufig geringere Bildungschancen als heute. Bitte nennen Sie uns den höchsten Schulabschluss Ihres Vaters und ihrer Ihrer Mutter.
3	SQ		e2k1Vscale	Volksschul-, Hauptschulabschluss
4	SQ		e2k1V1	Mittlere Reife, 10. Klasse, Realschulabschluss, Fachschulreife
5	SQ		e2k1V2	Fachhochschulreife, fachgebundene Hochschulreife, Abschluss einer Fachoberschule
6	SQ		e2k1V3	Abitur, allgemeine Hochschulreife
7	SQ		e2k1V4	Von der Schule abgegangen ohne Abschluss.
2	A		1	Vater
2	A		2	Mutter
8	Q	S	e2k1VV	Anderen Schulabschluss des Vaters, bitte notieren:
9	Q	S	e2k1VM	Anderen Schulabschluss der Mutter, bitte notieren:
10	Q	F	e2k2V	Bitten nennen Sie uns den höchsten beruflichen Ausbildungsabschluss Ihres Vaters und Ihrer Mutter.
11	SQ		e2k2Vscale	Keine berufliche Ausbildung (auch Berufsschule ohne Lehre)
12	SQ		e2k2V1	Berufsschule mit gewerblicher oder landwirtschaftlicher Lehre
13	SQ		e2k2V2	Berufsschule mit kaufmännischer oder sonstiger Lehre
14	SQ		e2k2V3	Berufsfachschule
15	SQ		e2k2V4	Meister-, Techniker- oder gleichwertige Fachschule
16	SQ		e2k2V5	Fachhochschule (auch Ingenieurschule)
17	SQ		e2k2V6	Hochschulabschluss
10	A		1	Vater
10	A		2	Mutter
18	Q	S	e2k2VV	Andere berufliche Ausbildung des Vaters, bitte notieren:
19	Q	S	e2k2VM	Andere berufliche Ausbildung der Mutter, bitte notieren:
20	Q	S	e2k3VS	Bitte erinnern Sie sich: Welche Tätigkeit übten Ihr Vater und Ihre Mutter in ihrem Hauptberuf aus, als Sie selbst 16 Jahre alt waren?
21	Q	S	e2k3MS	.
22	Q	N	e2k4VN	Wann wurde Ihr Vater geboren?
23	Q	N	e2k4MN	Wann wurde Ihre Mutter geboren?
24	Q	S	e2k5VS	In welchem Land wurden Ihr Vater geboren?
25	Q	S	e2k5MS	In welchem Land wurde Ihre Mutter geboren?
26	Q	L	e2k6V	Ist Ihr Vater noch am Leben?
26	A		2	Ja
26	A		1	Nein
27	Q	N	e2k6VN	Wann ist Ihr Vater verstorben?
28	Q	L	e2k6M	Ist Ihre Mutter noch am Leben?
28	A		2	Ja
28	A		1	Nein
29	Q	N	e2k6MN	Wann ist Ihre Mutter verstorben?
30	Q	F	e2k7V	Mit wem lebt Ihr Vater bzw. Ihre Mutter zusammen?
31	SQ		e2k7Vscale	Gemeinsam mit Ihrer Mutter bzw. Vater in einem Haushalt.
32	SQ		e2k7V1	Mit einer anderen Partnerin bzw. einem anderen Partner in einem Haushalt.
33	SQ		e2k7V2	Mit jemand anderem in einem Haushalt.
34	SQ		e2k7V3	Allein.
35	SQ		e2k7V4	In einem Alters- oder Pflegeheim, in betreuter Wohnanlage.
36	SQ		e2k7V5	Sonstiges.
37	SQ		e2k7V6	Kann ich nicht beantworten.
30	A		1	Vater
30	A		2	Mutter
31	Q	F	e2k8V	Wie geht es Ihrem Vater und Ihrer Mutter zurzeit gesundheitlich, insgesamt gesehen?
32	SQ		e2k8Vscale	Sehr gut
33	SQ		e2k8V1	Gut
34	SQ		e2k8V2	Es geht so (mittelmäßig).
35	SQ		e2k8V3	Schlecht
36	SQ		e2k8V4	Sehr schlecht
37	SQ		e2k8V5	Kann ich nicht beantworten
31	A		1	Vater
31	A		2	Mutter
38	Q	F	e2k9V	Benötigen Ihr Vater oder Ihre Mutter innerhalb der letzten 12 Monate regelmäßige Hilfe bei täglichen Verrichtungen, wie z.B. essen, aufstehen, anziehen, baden oder zur Toilette gehen?
39	SQ		e2k9Vscale	Ja
40	SQ		e2k9V1	Nein
41	SQ		e2k9V2	Kann ich nicht beantworten
38	A		1	Vater
38	A		2	Mutter
42	Q	F	e2k10V	Wie oft haben Sie normalerweise Kontakt mit Ihrem Vater und Ihrer Mutter, egal ob persönlich, telefonisch oder schriftlich?
43	SQ		e2k10Vscale	Täglich
44	SQ		e2k10V1	Mehrmals in der Woche
45	SQ		e2k10V2	Einmal in der Woche
46	SQ		e2k10V3	1-3 Mal im Monat
47	SQ		e2k10V4	Mehrmals im Jahr
48	SQ		e2k10V5	Seltener
49	SQ		e2k10V6	Kein Kontakt
50	SQ		e2k10V7	Kann ich nicht beantworten.
42	A		1	Vater
42	A		2	Mutter
51	Q	F	e2k11V	Wie lange brauchen Sie, um zu Ihrem Vater und zu Ihrer Mutter zu kommen (an einem gewöhnlichen Tag, mit einem Verkehrsmittel, das Sie normalerweise benutzen)?
52	SQ		e2k11Vscale	Wir wohnen in einem Haus.
53	SQ		e2k11V1	Weniger als 10 Minuten
54	SQ		e2k11V2	10 bis weniger als 30 Minuten
55	SQ		e2k11V3	30 Minuten bis weniger als 1 Stunde
56	SQ		e2k11V4	1 Stunde bis weniger als 3 Stunden
57	SQ		e2k11V5	3 Stunden und mehr
58	SQ		e2k11V6	Kann ich nicht beantworten.
51	A		1	Vater
51	A		2	Mutter
59	Q	F	e2k12A	Mein Vater bzw. meine Mutter sind für mich wie gute Freunde.
60	SQ		e2k12Ascale	Vater
61	SQ		e2k12A1	Mutter
59	A		1	Trifft genau zu
59	A		2	Trifft eher zu
59	A		3	Trifft eher nicht zu
59	A		4	Trifft gar nicht zu
62	Q	F	e2k12B	Mein Vater bzw. meine Mutter mag mich so, wie ich bin.
63	SQ		e2k12Bscale	Vater
64	SQ		e2k12B1	Mutter
62	A		1	Trifft genau zu
62	A		2	Trifft eher zu
62	A		3	Trifft eher nicht zu
62	A		4	Trifft gar nicht zu
65	Q	F	e2k12C	Ich kann meinem Vater bzw. meiner Mutter alles erzählen, was mich beschäftigt.
66	SQ		e2k12Cscale	Vater
67	SQ		e2k12C1	Mutter
65	A		1	Trifft genau zu
65	A		2	Trifft eher zu
65	A		3	Trifft eher nicht zu
65	A		4	Trifft gar nicht zu
68	Q	F	e2k12D	Ich genieße das Zusammensein mit meinem Vater bzw. meiner Mutter.
69	SQ		e2k12Dscale	Vater
70	SQ		e2k12D1	Mutter
68	A		1	Trifft genau zu
68	A		2	Trifft eher zu
68	A		3	Trifft eher nicht zu
68	A		4	Trifft gar nicht zu
71	Q	F	e2k12E	Obwohl ich meinen Vater bzw. meine Mutter liebe, bin ich häufig auch ärgerlich auf ihn/sie.
72	SQ		e2k12Escale	Vater
73	SQ		e2k12E1	Mutter
71	A		1	Trifft genau zu
71	A		2	Trifft eher zu
71	A		3	Trifft eher nicht zu
71	A		4	Trifft gar nicht zu
74	Q	F	e2k12F	Mein Vater bzw. meine Mutter und ich geraten oft aneinander, aber trotzdem ist die Beziehung eng.
75	SQ		e2k12Fscale	Vater
76	SQ		e2k12F1	Mutter
74	A		1	Trifft genau zu
74	A		2	Trifft eher zu
74	A		3	Trifft eher nicht zu
74	A		4	Trifft gar nicht zu
77	Q	F	e3k13A	Wie oft passiert es zwischen Ihnen und Ihrem Vater bzw. zwischen Ihnen und Ihrer Mutter, dass sie ärgerlich oder wütend aufeinander sind?
78	SQ		e2k13Ascale	Vater \& ich
79	SQ		e2k13A1	Mutter \& ich
77	A		1	Immer
77	A		2	Häufig
77	A		3	Manchmal
77	A		4	Seltener
77	A		5	Nie
80	Q	F	e2k13B	Wie oft sind Ihr Vater bzw. Ihre Mutter und Sie unterschiedlicher Meinung und streiten sich?
81	SQ		e2k13Bscale	Vater \& ich
82	SQ		e2k13B1	Mutter \& ich
80	A		1	Immer
80	A		2	Häufig
80	A		3	Manchmal
80	A		4	Seltener
80	A		5	Nie
83	Q	F	e2k14A	Wie häufig werden Sie von Ihrem Vater und Ihrer Mutter unterstützt? Unterstützung bei alltäglichen Arbeiten (z.B. Arbeiten im Haushalt, Besorgungen machen, Kinderbetreuung).
84	SQ		e2k14Ascale	Vater unterstützt mich.
85	SQ		e2k14A1	Mutter unterstützt mich.
83	A		1	Täglich
83	A		2	Mehrmals in der Woche
83	A		3	Mehrmals im Monat
83	A		4	Ein paar Mal im Jahr
83	A		5	Nie
86	Q	F	e2k15A	Wie häufig unterstützen Sie umgekehrt Ihren Vater und Ihre Mutter? Unterstützung bei alltäglichen Arbeiten (z.B. Arbeiten im Haushalt, Besorgungen machen, Pflege).
87	SQ		e2k15Ascale	Ich unterstütze Vater.
88	SQ		e2k15A1	Ich unterstütze Mutter.
86	A		1	Täglich
86	A		2	Mehrmals in der Woche
86	A		3	Mehrmals im Monat
86	A		4	Ein paar Mal im Jahr
86	A		5	Nie
