id	class	type/scale	name	text
1	Q	F	v38	Bitte geben Sie an, wieviel Entscheidungsfreiheit und Einfluss Sie nach Ihrem Empfinden darauf haben, wie Ihr weiteres Leben ablaeuft? 
2	SQ		v38a	.
1	A		1	Ueberhaupt keine Freiheit
2	A		2	.
3	A		3	.
4	A		4	.
5	A		5	.
6	A		6	.
7	A		7	.
8	A		8	.
9	A		9	.
10	A		10	Voellige Freiheit
11	A		88	Weiss nicht
12	A		99	Keine Antwort
