id	class	type/scale	name	text
	S		language	de
	SL		surveyls_language	de
	SL		surveyls_title	Lebensverlaeufe ins fruehe Erwachsenenalter
1	G	1	.	Kinder
1	Q	N	e9k1	Wie viele Kinder haben Sie?
2	Q	L	e9k1a	.
2	A		1	Ich habe keine Kinder
3	Q	N	e9k1j1	Geburtstag
4	Q	N	e9k1j2	Geburtstag
5	Q	N	e9k1j3	Geburtstag
6	Q	N	e9k1j4	Geburtstag
7	Q	N	e9k1j5	Geburtstag
8	Q	N	e9k1j6	Geburtstag
9	Q	L	e9k1g1	Geschlecht
9	A		1	weiblich
9	A		2	männlich
10	Q	L	e9k1g2	Geschlecht
10	A		1	weiblich
10	A		2	männlich
11	Q	L	e9k1g3	Geschlecht
11	A		1	weiblich
11	A		2	männlich
12	Q	L	e9k1g4	Geschlecht
12	A		1	weiblich
12	A		2	männlich
13	Q	L	e9k1g5	Geschlecht
13	A		1	weiblich
13	A		2	männlich
14	Q	L	e9k1g6	Geschlecht
14	A		1	weiblich
14	A		2	männlich
15	Q	L	e9k1l1	leibliches Kind
15	A		1	Ja
15	A		2	Nein
16	Q	L	e9k1l2	leibliches Kind
16	A		1	Ja
16	A		2	Nein
17	Q	L	e9k1l3	leibliches Kind
17	A		1	Ja
17	A		2	Nein
18	Q	L	e9k1l4	leibliches Kind
18	A		1	Ja
18	A		2	Nein
19	Q	L	e9k1l5	leibliches Kind
19	A		1	Ja
19	A		2	Nein
20	Q	L	e9k1l6	leibliches Kind
20	A		1	Ja
20	A		2	Nein
21	Q	L	e9k1h1	lebt zurzeit in meinem Haushalt
21	A		2	Ja
21	A		1	Nein
22	Q	L	e9k1h2	lebt zurzeit in meinem Haushalt
22	A		2	Ja
22	A		1	Nein
23	Q	L	e9k1h3	lebt zurzeit in meinem Haushalt
23	A		2	Ja
23	A		1	Nein
24	Q	L	e9k1h4	lebt zurzeit in meinem Haushalt
24	A		2	Ja
24	A		1	Nein
25	Q	L	e9k1h5	lebt zurzeit in meinem Haushalt
25	A		2	Ja
25	A		1	Nein
26	Q	L	e9k1h6	lebt zurzeit in meinem Haushalt
26	A		2	Ja
26	A		1	Nein
27	Q	F	e9k2	Wie sehr stimmen Sie den folgenden Aussagen zu oder lehnen sie ab?
28	SQ		e9k2scale	Bei den meisten Kindern muss man öfter einmal hart durchgreifen.
29	SQ		E9k21	Ohne häufigen Zwang können auch die besten Eltern nichts erreichen.
30	SQ		E9k22	Kinder müssen immer wieder lernen, auch dann zu gehorchen, wenn sie nicht verstehen, wozu etwas gut ist.
27	A		1	Lehne völlig ab
27	A		2	Lehne eher ab
27	A		3	Stimme eher zu
27	A		4	Stimme völlig zu
28	Q	F	e10k3	Wir haben …
29	SQ		e10k3a	...uns über politische Themen (z.B. Löhne und Preise, Umweltschutz, Kriege, innere Sicherheit) unterhalten.
30	SQ		e10k3b	...gemeinsam Literatur gelesen oder gemeinsam musiziert.
31	SQ		e10k3c	...uns über soziale Themen unterhalten (z.B. Arbeitslosigkeit, Probleme alter und kranker Menschen, Drogenkonsum).
32	SQ		e10k3d	...Konzerte, Theatervorstellungen, Kunstausstellungen besucht oder über kulturelle Ereignisse gesprochen.
33	SQ		e10k3e	...gemeinsame Ausstellungen oder Vorträge besucht (z.B. über Technik, Wissenschaft, Natur, Verkehr) oder uns über solche allgemeinen Themen unterhalten.
28	A		1	Fast nie
28	A		2	Mehrmals im Jahr
28	A		3	Mehrmals im Monat
28	A		4	Mehrmals in der Woche
34	Q	L	e10k4	Welchen Schulabschluss sollte ihr Kind Ihren Vorstellungen nach erreichen? Wenn Ihr Kind bereits einen Schulabschluss hat, kreuzen Sie bitte den Schulabschluss an, den Ihr Kind Ihren Vorstellungen nach hätte erreichen sollen.
34	A		1	den Hauptschulabschluss
34	A		2	den Realschulabschluss (Mittlere Reife)
34	A		3	das Abitur
35	Q	M	e10k5	Und welchen Berufsabschluss sollte Ihr Kind Ihren Vorstellungen nach erreichen?
36	SQ		e10k5a	Keinen Abschluss
37	SQ		e10k5b	Abschluss einer Lehre
38	SQ		e10k5c	Berufsfachschule, Fachschule (z.B. Gesundheitswesen, Meister-, Technikerschule)
39	SQ		e10k5d	Fachhochschule
40	SQ		e10k5e	Universität
41	SQ		e10k5f	Andere:
42	SQ		e10k5g	Weiß ich nicht.
35	A		1	.
43	Q	N	e10k5fi	Andere:
44	Q	L	e10k6	Und was erwarten Sie, welchen Schulabschluss Ihr Kind auch wirklich erreicht? Falls Ihr Kind bereits von der Schule abgegangen ist, kreuzen Sie bitte den Schulabschluss an, den Ihr Kind erreicht hat.
44	A		1	den Hauptschulabschluss
44	A		2	den Realschulabschluss (Mittlere Reife)
44	A		3	das Abitur
45	Q	M	e10k7	Und was erwarten Sie, welchen Berufsabschluss Ihr Kind auch wirklich erreicht?
46	SQ		e10k7a	Keinen Abschluss
47	SQ		e10k7b	Abschluss einer Lehre
48	SQ		e10k7c	Berufsfachschule, Fachschule (z.B. Gesundheitswesen, Meister-, Technikerschule)
49	SQ		e10k7d	Fachhochschule
50	SQ		e10k7e	Universität
51	SQ		e10k7f	Andere:
52	SQ		e10k7g	Weiß ich nicht.
53	Q	N	e10k7fi	Andere:
54	Q	L	e10k8	Für wie begabt halten Sie ihr Kind?
54	A		1	Sehr begabt
54	A		2	Eher begabt
54	A		3	Weniger begabt
54	A		4	Gar nicht begabt
