id	class	type/scale	name	text
	S		language	de
	SL		surveyls_language	de
	SL		surveyls_title	Studierendenumfrage zur Gesundheit
1	G	1	.	.
1	Q	L	sex	Welches Geschlecht haben Sie?
1	A		1	weiblich
1	A		2	männlich
1	A		3	divers
1	A		99	keine Angabe
2	Q	N	age	Wie alt sind Sie?
3	Q	L	sport	Wie oft in der Woche machen Sie Sport?
3	A		1	0 Mal
3	A		2	1 bis 2 Mal
3	A		3	3 bis 4 Mal
3	A		4	5 bis 6 Mal
3	A		5	täglich
4	Q	L	alc1	Trinken Sie Alkohol?
4	A		1	Ja
4	A		2	Nein
5	Q	L	alc2	Wenn ja, wie oft in der Woche?
5	A		1	unregelmäßig
5	A		2	1 bis 2 Mal
5	A		3	3 bis 4 Mal
5	A		4	5 bis 6 Mal
5	A		5	täglich
6	Q	L	smoking1	Rauchen Sie?
6	A		1	Ja
6	A		2	Nein
7	Q	L	smoking2	Wenn ja, wie oft in der Woche?
7	A		1	unregelmäßig
7	A		2	1 bis 2 Mal
7	A		3	3 bis 4 Mal
7	A		4	5 bis 6 Mal
7	A		5	täglich
8	Q	N	sleep	Wieviele Stunden schlafen Sie am Tag?
9	Q	F	habits	Für wie nützlich halten Sie die folgenden Dinge zur Förderung der Gesundheit?
10	SQ		habitsscale	Joggen
11	SQ		habits1	Meditieren
12	SQ		habits2	Schlafen
13	SQ		habits3	Schwimmen
14	SQ		habits4	Gesunde Ernährung
9	A		1	sehr nützlich
9	A		2	eher nützlich
9	A		3	teils, teils
9	A		4	eher unnützlich
9	A		5	sehr unnützlich
