<?xml version="1.0" encoding="UTF-8"?>
<svg xmlns="http://www.w3.org/2000/svg" xmlns:xlink="http://www.w3.org/1999/xlink" width="89.024pt" height="89.024pt" viewBox="0 0 89.024 89.024" version="1.1">
<defs>
<clipPath id="clip1">
  <path d="M 0 0 L 89.023438 0 L 89.023438 89.023438 L 0 89.023438 Z M 0 0 "/>
</clipPath>
</defs>
<g id="surface1">
<g clip-path="url(#clip1)" clip-rule="nonzero">
<path style="fill:none;stroke-width:3.9851;stroke-linecap:butt;stroke-linejoin:miter;stroke:rgb(95.292664%,78.039551%,11.764526%);stroke-opacity:1;stroke-miterlimit:10;" d="M 42.51925 -14.172719 C 42.51925 9.311656 23.484094 28.346812 -0.00028125 28.346812 C -23.484656 28.346812 -42.519813 9.311656 -42.519813 -14.172719 C -42.519813 -37.657094 -23.484656 -56.69225 -0.00028125 -56.69225 C 23.484094 -56.69225 42.51925 -37.657094 42.51925 -14.172719 Z M 42.51925 -14.172719 " transform="matrix(1,0,0,-1,44.512,30.339)"/>
</g>
<path style=" stroke:none;fill-rule:nonzero;fill:rgb(50%,50%,50%);fill-opacity:0.3;" d="M 81.523438 47.144531 C 81.523438 27.574219 65.660156 11.710938 46.089844 11.710938 C 26.519531 11.710938 10.65625 27.574219 10.65625 47.144531 C 10.65625 66.714844 26.519531 82.578125 46.089844 82.578125 C 65.660156 82.578125 81.523438 66.714844 81.523438 47.144531 Z M 81.523438 47.144531 "/>
<path style="fill-rule:nonzero;fill:rgb(88.038635%,90.194702%,92.939758%);fill-opacity:1;stroke-width:0.3985;stroke-linecap:butt;stroke-linejoin:miter;stroke:rgb(17.254639%,21.569824%,26.667786%);stroke-opacity:1;stroke-miterlimit:10;" d="M 35.433312 -14.172719 C 35.433312 5.397594 19.570031 21.260875 -0.00028125 21.260875 C -19.570594 21.260875 -35.433875 5.397594 -35.433875 -14.172719 C -35.433875 -33.743031 -19.570594 -49.606313 -0.00028125 -49.606313 C 19.570031 -49.606313 35.433312 -33.743031 35.433312 -14.172719 Z M 35.433312 -14.172719 " transform="matrix(1,0,0,-1,44.512,30.339)"/>
<path style=" stroke:none;fill-rule:nonzero;fill:rgb(50%,50%,50%);fill-opacity:0.3;" d="M 74.4375 47.144531 C 74.4375 31.488281 61.746094 18.796875 46.089844 18.796875 C 30.433594 18.796875 17.746094 31.488281 17.746094 47.144531 C 17.746094 62.800781 30.433594 75.492188 46.089844 75.492188 C 61.746094 75.492188 74.4375 62.800781 74.4375 47.144531 Z M 74.4375 47.144531 "/>
<path style="fill-rule:nonzero;fill:rgb(92.823792%,94.117737%,95.762634%);fill-opacity:1;stroke-width:0.3985;stroke-linecap:butt;stroke-linejoin:miter;stroke:rgb(17.254639%,21.569824%,26.667786%);stroke-opacity:1;stroke-miterlimit:10;" d="M 28.347375 -14.172719 C 28.347375 1.483531 15.655969 14.174937 -0.00028125 14.174937 C -15.656531 14.174937 -28.347938 1.483531 -28.347938 -14.172719 C -28.347938 -29.828969 -15.656531 -42.520375 -0.00028125 -42.520375 C 15.655969 -42.520375 28.347375 -29.828969 28.347375 -14.172719 Z M 28.347375 -14.172719 " transform="matrix(1,0,0,-1,44.512,30.339)"/>
<path style=" stroke:none;fill-rule:nonzero;fill:rgb(50%,50%,50%);fill-opacity:0.3;" d="M 67.351562 47.144531 C 67.351562 35.402344 57.832031 25.882812 46.089844 25.882812 C 34.347656 25.882812 24.832031 35.402344 24.832031 47.144531 C 24.832031 58.886719 34.347656 68.402344 46.089844 68.402344 C 57.832031 68.402344 67.351562 58.886719 67.351562 47.144531 Z M 67.351562 47.144531 "/>
<path style="fill-rule:nonzero;fill:rgb(96.409607%,97.059631%,97.880554%);fill-opacity:1;stroke-width:0.3985;stroke-linecap:butt;stroke-linejoin:miter;stroke:rgb(17.254639%,21.569824%,26.667786%);stroke-opacity:1;stroke-miterlimit:10;" d="M 21.261437 -14.172719 C 21.261437 -2.430531 11.741906 7.085094 -0.00028125 7.085094 C -11.742469 7.085094 -21.262 -2.430531 -21.262 -14.172719 C -21.262 -25.914906 -11.742469 -35.434438 -0.00028125 -35.434438 C 11.741906 -35.434438 21.261437 -25.914906 21.261437 -14.172719 Z M 21.261437 -14.172719 " transform="matrix(1,0,0,-1,44.512,30.339)"/>
<path style=" stroke:none;fill-rule:nonzero;fill:rgb(50%,50%,50%);fill-opacity:0.3;" d="M 60.265625 47.144531 C 60.265625 39.316406 53.917969 32.96875 46.089844 32.96875 C 38.261719 32.96875 31.917969 39.316406 31.917969 47.144531 C 31.917969 54.972656 38.261719 61.316406 46.089844 61.316406 C 53.917969 61.316406 60.265625 54.972656 60.265625 47.144531 Z M 60.265625 47.144531 "/>
<path style="fill-rule:nonzero;fill:rgb(100%,100%,100%);fill-opacity:1;stroke-width:0.3985;stroke-linecap:butt;stroke-linejoin:miter;stroke:rgb(17.254639%,21.569824%,26.667786%);stroke-opacity:1;stroke-miterlimit:10;" d="M 14.171594 -14.172719 C 14.171594 -6.344594 7.827844 -0.00084375 -0.00028125 -0.00084375 C -7.828406 -0.00084375 -14.172156 -6.344594 -14.172156 -14.172719 C -14.172156 -22.000844 -7.828406 -28.3485 -0.00028125 -28.3485 C 7.827844 -28.3485 14.171594 -22.000844 14.171594 -14.172719 Z M 14.171594 -14.172719 " transform="matrix(1,0,0,-1,44.512,30.339)"/>
</g>
</svg>
