<?xml version="1.0" encoding="UTF-8"?>
<svg xmlns="http://www.w3.org/2000/svg" xmlns:xlink="http://www.w3.org/1999/xlink" width="118.61pt" height="88.299pt" viewBox="0 0 118.61 88.299" version="1.1">
<defs>
<clipPath id="clip1">
  <path d="M 0 0 L 118.609375 0 L 118.609375 85 L 0 85 Z M 0 0 "/>
</clipPath>
<clipPath id="clip2">
  <path d="M 0 0 L 118.609375 0 L 118.609375 88.300781 L 0 88.300781 Z M 0 0 "/>
</clipPath>
<clipPath id="clip3">
  <path d="M 0 0 L 83 0 L 83 88.300781 L 0 88.300781 Z M 0 0 "/>
</clipPath>
<clipPath id="clip4">
  <path d="M 36 0 L 118.609375 0 L 118.609375 88.300781 L 36 88.300781 Z M 36 0 "/>
</clipPath>
<clipPath id="clip5">
  <path d="M 0 0 L 96 0 L 96 88.300781 L 0 88.300781 Z M 0 0 "/>
</clipPath>
<clipPath id="clip6">
  <path d="M 23 0 L 118.609375 0 L 118.609375 88.300781 L 23 88.300781 Z M 23 0 "/>
</clipPath>
</defs>
<g id="surface1">
<g clip-path="url(#clip1)" clip-rule="nonzero">
<path style="fill:none;stroke-width:4.53549;stroke-linecap:butt;stroke-linejoin:miter;stroke:rgb(17.254639%,21.569824%,26.667786%);stroke-opacity:1;stroke-miterlimit:10;" d="M 0.73175 13.914813 L 9.282531 31.442156 C 9.403625 31.68825 9.723937 31.891375 9.997375 31.891375 L 103.388 31.891375 C 103.661438 31.891375 103.985656 31.68825 104.10675 31.442156 L 112.653625 13.914813 C 112.774719 13.664813 112.649719 13.465594 112.376281 13.465594 L 1.013 13.465594 C 0.735656 13.465594 0.610656 13.664813 0.73175 13.914813 Z M 0.73175 13.914813 " transform="matrix(1,0,0,-1,2.612,34.157)"/>
</g>
<g clip-path="url(#clip2)" clip-rule="nonzero">
<path style="fill:none;stroke-width:4.53549;stroke-linecap:butt;stroke-linejoin:miter;stroke:rgb(17.254639%,21.569824%,26.667786%);stroke-opacity:1;stroke-miterlimit:10;" d="M 0.708313 14.055438 L 0.708313 5.481219 C 0.708313 5.207781 0.930969 4.985125 1.208313 4.985125 L 112.180969 4.985125 C 112.454406 4.985125 112.677063 5.207781 112.677063 5.481219 L 112.677063 14.055438 " transform="matrix(1,0,0,-1,2.612,34.157)"/>
</g>
<g clip-path="url(#clip3)" clip-rule="nonzero">
<path style="fill:none;stroke-width:4.53549;stroke-linecap:butt;stroke-linejoin:miter;stroke:rgb(17.254639%,21.569824%,26.667786%);stroke-opacity:1;stroke-miterlimit:10;" d="M 15.091125 4.817156 L 7.583312 4.817156 C 7.309875 4.817156 7.087219 4.5945 7.087219 4.321063 L 7.087219 -51.378156 C 7.087219 -51.651594 7.309875 -51.87425 7.583312 -51.87425 L 15.091125 -51.87425 C 15.368469 -51.87425 15.591125 -51.651594 15.591125 -51.378156 L 15.591125 4.321063 C 15.591125 4.5945 15.368469 4.817156 15.091125 4.817156 Z M 15.091125 4.817156 " transform="matrix(1,0,0,-1,2.612,34.157)"/>
</g>
<g clip-path="url(#clip4)" clip-rule="nonzero">
<path style="fill:none;stroke-width:4.53549;stroke-linecap:butt;stroke-linejoin:miter;stroke:rgb(17.254639%,21.569824%,26.667786%);stroke-opacity:1;stroke-miterlimit:10;" d="M 105.802063 4.817156 L 98.29425 4.817156 C 98.020813 4.817156 97.798156 4.5945 97.798156 4.321063 L 97.798156 -51.378156 C 97.798156 -51.651594 98.020813 -51.87425 98.29425 -51.87425 L 105.802063 -51.87425 C 106.079406 -51.87425 106.302063 -51.651594 106.302063 -51.378156 L 106.302063 4.321063 C 106.302063 4.5945 106.079406 4.817156 105.802063 4.817156 Z M 105.802063 4.817156 " transform="matrix(1,0,0,-1,2.612,34.157)"/>
</g>
<g clip-path="url(#clip5)" clip-rule="nonzero">
<path style="fill:none;stroke-width:4.53549;stroke-linecap:butt;stroke-linejoin:miter;stroke:rgb(17.254639%,21.569824%,26.667786%);stroke-opacity:1;stroke-miterlimit:10;" d="M 28.333313 4.25075 L 22.688781 4.25075 C 22.415344 4.25075 22.192688 4.028094 22.192688 3.754656 L 22.192688 -37.768781 C 22.192688 -38.046125 22.415344 -38.268781 22.688781 -38.268781 L 28.333313 -38.268781 C 28.610656 -38.268781 28.833313 -38.046125 28.833313 -37.768781 L 28.833313 3.754656 C 28.833313 4.028094 28.610656 4.25075 28.333313 4.25075 Z M 28.333313 4.25075 " transform="matrix(1,0,0,-1,2.612,34.157)"/>
</g>
<g clip-path="url(#clip6)" clip-rule="nonzero">
<path style="fill:none;stroke-width:4.53549;stroke-linecap:butt;stroke-linejoin:miter;stroke:rgb(17.254639%,21.569824%,26.667786%);stroke-opacity:1;stroke-miterlimit:10;" d="M 90.696594 4.25075 L 85.052063 4.25075 C 84.778625 4.25075 84.555969 4.028094 84.555969 3.754656 L 84.555969 -37.768781 C 84.555969 -38.046125 84.778625 -38.268781 85.052063 -38.268781 L 90.696594 -38.268781 C 90.973938 -38.268781 91.196594 -38.046125 91.196594 -37.768781 L 91.196594 3.754656 C 91.196594 4.028094 90.973938 4.25075 90.696594 4.25075 Z M 90.696594 4.25075 " transform="matrix(1,0,0,-1,2.612,34.157)"/>
</g>
</g>
</svg>
