<?xml version="1.0" encoding="UTF-8"?>
<svg xmlns="http://www.w3.org/2000/svg" xmlns:xlink="http://www.w3.org/1999/xlink" width="20.794pt" height="27.784pt" viewBox="0 0 20.794 27.784" version="1.1">
<defs>
<g>
<symbol overflow="visible" id="glyph0-0">
<path style="stroke:none;" d="M 3.09375 -1.53125 L 3.09375 -19.703125 L 9.296875 -19.703125 L 9.296875 -1.53125 Z M 1.53125 0 L 10.859375 0 L 10.859375 -21.234375 L 1.53125 -21.234375 Z M 1.53125 0 "/>
</symbol>
<symbol overflow="visible" id="glyph0-1">
<path style="stroke:none;" d="M 3.984375 -0.890625 C 3.984375 -0.15625 3.390625 0.453125 2.65625 0.453125 C 1.90625 0.453125 1.34375 -0.15625 1.34375 -0.890625 C 1.34375 -1.640625 1.90625 -2.203125 2.65625 -2.203125 C 3.390625 -2.203125 3.984375 -1.640625 3.984375 -0.890625 Z M 3.984375 -16.828125 C 3.984375 -16.078125 3.390625 -15.484375 2.65625 -15.484375 C 1.90625 -15.484375 1.34375 -16.078125 1.34375 -16.828125 C 1.34375 -17.5625 1.90625 -18.140625 2.65625 -18.140625 C 3.390625 -18.140625 3.984375 -17.5625 3.984375 -16.828125 Z M 12.84375 -15.046875 C 12.84375 -14.296875 12.234375 -13.734375 11.5 -13.734375 C 10.75 -13.734375 10.1875 -14.296875 10.1875 -15.046875 C 10.1875 -15.78125 10.75 -16.375 11.5 -16.375 C 12.234375 -16.375 12.84375 -15.78125 12.84375 -15.046875 Z M 14.15625 -15.046875 C 14.15625 -16.5 12.953125 -17.6875 11.5 -17.6875 C 10.03125 -17.6875 8.84375 -16.5 8.84375 -15.046875 C 8.84375 -14.046875 9.390625 -13.203125 10.1875 -12.765625 C 10.15625 -9.859375 8.703125 -9.25 6.125 -8.421875 C 5.453125 -8.234375 4.6875 -8 3.984375 -7.65625 L 3.984375 -14.515625 C 4.78125 -14.96875 5.296875 -15.828125 5.296875 -16.828125 C 5.296875 -18.28125 4.109375 -19.484375 2.65625 -19.484375 C 1.1875 -19.484375 0 -18.28125 0 -16.828125 C 0 -15.828125 0.546875 -14.96875 1.34375 -14.515625 L 1.34375 -3.171875 C 0.546875 -2.71875 0 -1.890625 0 -0.890625 C 0 0.5625 1.1875 1.765625 2.65625 1.765625 C 4.109375 1.765625 5.296875 0.5625 5.296875 -0.890625 C 5.296875 -1.890625 4.78125 -2.71875 3.984375 -3.171875 L 3.984375 -3.546875 C 3.984375 -4.875 4.6875 -5.203125 6.890625 -5.890625 C 9.25 -6.640625 12.78125 -7.78125 12.84375 -12.765625 C 13.625 -13.203125 14.15625 -14.046875 14.15625 -15.046875 Z M 14.15625 -15.046875 "/>
</symbol>
</g>
</defs>
<g id="surface1">
<g style="fill:rgb(17.254639%,21.569824%,26.667786%);fill-opacity:1;">
  <use xlink:href="#glyph0-1" x="3.321" y="22.716"/>
</g>
</g>
</svg>
