<?xml version="1.0" encoding="UTF-8" standalone="no"?>
<svg
   xmlns:dc="http://purl.org/dc/elements/1.1/"
   xmlns:cc="http://creativecommons.org/ns#"
   xmlns:rdf="http://www.w3.org/1999/02/22-rdf-syntax-ns#"
   xmlns:svg="http://www.w3.org/2000/svg"
   xmlns="http://www.w3.org/2000/svg"
   viewBox="0 0 385.04266 313.99466"
   height="313.99466"
   width="385.04266"
   xml:space="preserve"
   id="svg2"
   version="1.1"><metadata
     id="metadata8"><rdf:RDF><cc:Work
         rdf:about=""><dc:format>image/svg+xml</dc:format><dc:type
           rdf:resource="http://purl.org/dc/dcmitype/StillImage" /></cc:Work></rdf:RDF></metadata><defs
     id="defs6"><clipPath
       id="clipPath24"
       clipPathUnits="userSpaceOnUse"><path
         id="path22"
         d="M -99.99658,-82.75485 -90.79823,92.75432 174.44644,78.85295 165.2481,-96.6562 Z" /></clipPath></defs><g
     transform="matrix(1.3333333,0,0,-1.3333333,0,313.99467)"
     id="g10"><g
       transform="translate(99.995,142.743)"
       id="g12"><g
         id="g14"><g
           id="g16"><g
             id="g18"><g
               clip-path="url(#clipPath24)"
               id="g20"><g
                 id="g26"><g
                   id="g28"><path
                     id="path30"
                     style="fill:#d9d9d9;fill-opacity:1;fill-rule:nonzero;stroke:none"
                     d="m -66.98412,88.66753 c -10.9884,0.57589 -21.8887,-36.97829 -24.34684,-83.88094 -2.45815,-46.90263 4.45683,-85.39049 15.44523,-85.96639 l 172.51706,-9.04153 c -10.98839,0.5759 -17.90338,39.06375 -15.44523,85.9664 2.45814,46.90263 13.35844,84.4568 24.34684,83.88091 z" /><path
                     id="path32"
                     style="fill:#808080;fill-opacity:1;fill-rule:nonzero;stroke:none"
                     d="m 105.53294,79.62598 c 10.98841,-0.5759 17.90339,-39.06375 15.44526,-85.96639 -2.45815,-46.90265 -13.35846,-84.45682 -24.34687,-83.88092 -10.98839,0.5759 -17.90338,39.06375 -15.44523,85.9664 2.45814,46.90263 13.35844,84.4568 24.34684,83.88091 z" /></g><g
                   id="g34" /><g
                   transform="matrix(0.99863,-0.05234,0.05234,0.99863,0,0)"
                   id="g36"><g
                     id="g38" /></g></g><g
                 id="g40"><path
                   id="path42"
                   style="fill:none;stroke:#e6e6e6;stroke-width:11.33870983;stroke-linecap:butt;stroke-linejoin:miter;stroke-miterlimit:10;stroke-dasharray:none;stroke-opacity:1"
                   d="M 51.85141,84.42584 C 40.90752,84.99939 29.99681,46.55606 27.48131,-1.44107 24.9658,-49.4382 31.79816,-88.81145 42.74205,-89.385" /></g><g
                 id="g44"><path
                   id="path46"
                   style="fill:none;stroke:#e6e6e6;stroke-width:11.33870983;stroke-linecap:butt;stroke-linejoin:miter;stroke-miterlimit:10;stroke-dasharray:none;stroke-opacity:1"
                   d="M 37.69746,85.16765 C 26.75356,85.7412 15.84285,47.29788 13.32735,-0.69925 10.81186,-48.6964 17.6442,-88.06963 28.5881,-88.64319" /></g><g
                 id="g48"><path
                   id="path50"
                   style="fill:none;stroke:#e6e6e6;stroke-width:11.33870983;stroke-linecap:butt;stroke-linejoin:miter;stroke-miterlimit:10;stroke-dasharray:none;stroke-opacity:1"
                   d="M 23.54353,85.90944 C 12.59964,86.483 1.68893,48.03967 -0.82655,0.04253 -3.34206,-47.9546 3.49028,-87.32784 14.43417,-87.90138" /></g><g
                 id="g52"><path
                   id="path54"
                   style="fill:none;stroke:#e6e6e6;stroke-width:11.33870983;stroke-linecap:butt;stroke-linejoin:miter;stroke-miterlimit:10;stroke-dasharray:none;stroke-opacity:1"
                   d="M 9.38959,86.65126 C -1.5543,87.22481 -12.46501,48.78148 -14.98051,0.78433 -17.49602,-47.2128 -10.66367,-86.58603 0.28023,-87.15958" /></g><g
                 id="g56"><path
                   id="path58"
                   style="fill:none;stroke:#e6e6e6;stroke-width:11.33870983;stroke-linecap:butt;stroke-linejoin:miter;stroke-miterlimit:10;stroke-dasharray:none;stroke-opacity:1"
                   d="m -4.76433,87.39304 c -10.94389,0.57354 -21.8546,-37.86977 -24.3701,-85.86692 -2.5155,-47.99713 4.31685,-87.37036 15.26074,-87.94392" /></g><g
                 id="g60"><path
                   id="path62"
                   style="fill:none;stroke:#e6e6e6;stroke-width:11.33870983;stroke-linecap:butt;stroke-linejoin:miter;stroke-miterlimit:10;stroke-dasharray:none;stroke-opacity:1"
                   d="M -18.91826,88.13484 C -29.86217,88.7084 -40.77287,50.26508 -43.28838,2.26793 c -2.5155,-47.99713 4.31685,-87.37036 15.26076,-87.94391" /></g><g
                 id="g64"><g
                   id="g66" /><g
                   id="g68"><path
                     id="path70"
                     style="fill:none;stroke:#404040;stroke-width:8.50403023;stroke-linecap:butt;stroke-linejoin:miter;stroke-miterlimit:10;stroke-dasharray:none;stroke-opacity:1"
                     d="m -66.98412,88.66753 c -10.9884,0.57589 -21.8887,-36.97829 -24.34684,-83.88094 -2.45815,-46.90263 4.45683,-85.39049 15.44523,-85.96639 l 172.51706,-9.04153 c 10.98841,-0.5759 21.88872,36.97827 24.34687,83.88092 2.45813,46.90264 -4.45685,85.39049 -15.44526,85.96639 z M 105.53294,79.62598 C 94.54454,80.20187 83.64424,42.6477 81.1861,-4.25493 c -2.45815,-46.90265 4.45684,-85.3905 15.44523,-85.9664" /></g><g
                   transform="matrix(0.99863,-0.05234,0.05234,0.99863,0,0)"
                   id="g72"><g
                     id="g74" /></g></g></g></g><g
             id="g76"><g
               id="g78"><path
                 id="path80"
                 style="fill:#808080;fill-opacity:1;fill-rule:nonzero;stroke:none"
                 d="m 137.48192,-102.04868 c 0,2.59356 -5.07645,4.696 -11.33872,4.696 -6.26228,0 -11.33871,-2.10244 -11.33871,-4.696 0,-2.59353 5.07643,-4.69598 11.33871,-4.69598 6.26227,0 11.33872,2.10245 11.33872,4.69598 z" /></g><g
               transform="translate(126.142,-102.047)"
               id="g82"><g
                 id="g84" /><g
                 transform="translate(-126.142,102.047)"
                 id="g86" /></g></g><g
             id="g88"><g
               id="g90"><path
                 id="path92"
                 style="fill:#2ca35f;fill-opacity:1;fill-rule:nonzero;stroke:#2c6444;stroke-width:0.85281003;stroke-linecap:butt;stroke-linejoin:miter;stroke-miterlimit:10;stroke-dasharray:none;stroke-opacity:1"
                 d="m 133.23007,-93.54454 c 0,6.26227 -5.07644,11.33871 -11.33871,11.33871 -6.26227,0 -11.33872,-5.07644 -11.33872,-11.33871 0,-6.26228 5.07645,-11.33872 11.33872,-11.33872 6.26227,0 11.33871,5.07644 11.33871,11.33872 z" /></g><g
               transform="translate(121.89,-93.543)"
               id="g94"><g
                 id="g96" /><g
                 transform="translate(-121.89,93.543)"
                 id="g98" /></g></g><g
             id="g100"><g
               id="g102"><path
                 id="path104"
                 style="fill:#808080;fill-opacity:1;fill-rule:nonzero;stroke:none"
                 d="m 159.30908,-138.04881 c 0,2.59355 -5.07644,4.696 -11.33871,4.696 -6.26227,0 -11.33872,-2.10245 -11.33872,-4.696 0,-2.59355 5.07645,-4.696 11.33872,-4.696 6.26227,0 11.33871,2.10245 11.33871,4.696 z" /></g><g
               transform="translate(147.969,-138.047)"
               id="g106"><g
                 id="g108" /><g
                 transform="translate(-147.969,138.047)"
                 id="g110" /></g></g><g
             id="g112"><g
               id="g114"><path
                 id="path116"
                 style="fill:#2ca35f;fill-opacity:1;fill-rule:nonzero;stroke:#2c6444;stroke-width:0.85281003;stroke-linecap:butt;stroke-linejoin:miter;stroke-miterlimit:10;stroke-dasharray:none;stroke-opacity:1"
                 d="m 155.90761,-130.39548 c 0,6.26227 -5.07645,11.33872 -11.33871,11.33872 -6.26227,0 -11.33872,-5.07645 -11.33872,-11.33872 0,-6.26227 5.07645,-11.33871 11.33872,-11.33871 6.26226,0 11.33871,5.07644 11.33871,11.33871 z" /></g><g
               transform="translate(144.567,-130.394)"
               id="g118"><g
                 id="g120" /><g
                 transform="translate(-144.567,130.394)"
                 id="g122" /></g></g><g
             id="g124"><g
               id="g126"><path
                 id="path128"
                 style="fill:#808080;fill-opacity:1;fill-rule:nonzero;stroke:none"
                 d="m 188.78958,-110.55237 c 0,2.59355 -5.07645,4.696 -11.33871,4.696 -6.26229,0 -11.33872,-2.10245 -11.33872,-4.696 0,-2.59355 5.07643,-4.696 11.33872,-4.696 6.26226,0 11.33871,2.10245 11.33871,4.696 z" /></g><g
               transform="translate(177.449,-110.551)"
               id="g130"><g
                 id="g132" /><g
                 transform="translate(-177.449,110.551)"
                 id="g134" /></g></g><g
             id="g136"><g
               id="g138"><path
                 id="path140"
                 style="fill:#f3b407;fill-opacity:1;fill-rule:nonzero;stroke:#dba203;stroke-width:0.85281003;stroke-linecap:butt;stroke-linejoin:miter;stroke-miterlimit:10;stroke-dasharray:none;stroke-opacity:1"
                 d="m 184.25441,-102.04868 c 0,6.26229 -5.07643,11.33872 -11.33871,11.33872 -6.26227,0 -11.33872,-5.07643 -11.33872,-11.33872 0,-6.26226 5.07645,-11.33871 11.33872,-11.33871 6.26228,0 11.33871,5.07645 11.33871,11.33871 z" /></g><g
               transform="translate(172.914,-102.047)"
               id="g142"><g
                 id="g144" /><g
                 transform="translate(-172.914,102.047)"
                 id="g146" /></g></g></g></g></g></g></svg>